<svg width="249" height="151" viewBox="0 0 249 151" fill="none" xmlns="http://www.w3.org/2000/svg">
<path d="M5.41406 151L36.5579 90.902C37.8406 88.4294 40.3872 86.8816 43.1602 86.8816L214.951 86.6552C217.951 86.6552 220.648 88.4483 221.818 91.204L247.189 151H5.41406Z" fill="#FEDCBC"/>
<path d="M135.291 130.672C135.8 129.992 135.461 129.03 134.65 128.822L132.895 128.388L69.8909 113.307C69.6834 113.25 62.7793 108.984 62.5718 109.06L27.41 120.309C26.2971 120.63 25.9575 121.933 27.0516 122.291L35.5591 125.953C35.7855 126.028 37.0871 126.368 37.3323 126.312L49.688 123.084C49.9332 123.008 54.1021 124.518 54.3473 124.594L61.4966 126.859C61.5343 126.878 66.1748 131.37 66.1748 131.37C66.4578 131.729 66.9482 131.899 67.4009 131.766L72.5319 130.389L73.1166 130.238L125.105 142.846C125.558 142.959 126.029 142.789 126.312 142.412L135.291 130.672Z" fill="#D5BFB5"/>
<path d="M31.1818 21.7818C31.5968 21.6874 32.0118 21.593 32.4268 21.5175C33.5398 21.2721 34.6527 21.0268 35.7657 20.8003C37.3691 20.4605 38.9725 20.1019 40.5759 19.7621C42.4623 19.3469 44.3486 18.9505 46.235 18.5353C48.2157 18.1011 50.1775 17.6859 52.1582 17.2518C54.0257 16.8554 55.8743 16.4401 57.7229 16.0438C59.2698 15.704 60.8166 15.3643 62.3634 15.0434C63.8159 14.7225 65.2684 14.3073 66.7586 14.1563C67.5132 14.0808 68.2677 14.0808 69.0223 14.194C69.7579 14.3073 70.4559 14.5904 71.1727 14.8169C73.5307 15.5153 77.0393 16.3269 77.0582 18.7618L76.0207 106.342C76.0395 108.928 74.3229 111.23 71.8329 111.948L40.1043 120.913C38.9159 121.253 37.652 121.196 36.5013 120.762L33.3134 119.554C31.1818 118.762 29.767 116.761 29.6916 114.496L26.73 27.4443C26.6357 24.7263 28.5032 22.3669 31.1818 21.7818Z" fill="#F68944"/>
<path d="M74.2306 111.627L40.3515 121.159C37.522 121.951 35.164 120.045 35.0697 116.912L32.6551 30.8229C32.5608 27.4631 34.8622 24.2355 37.7861 23.6126L72.8913 16.1004C75.6642 15.5152 77.9467 17.667 77.9845 20.9324L78.9842 104.718C79.0408 107.795 76.9092 110.872 74.2306 111.627Z" fill="#073334"/>
<path d="M76.4178 21.8195L77.4553 104.454C77.4742 105.813 76.531 107.172 75.3426 107.512L38.9546 117.648C38.2001 117.855 37.521 117.648 37.0871 117.119C36.8042 116.761 36.6344 116.308 36.6155 115.76L34.2953 31.0116C34.2198 28.4257 35.993 25.9531 38.2189 25.4623L72.4942 18.0822C73.5505 17.8557 74.5503 18.1388 75.2482 18.8183C75.9651 19.4978 76.3989 20.5737 76.4178 21.8195Z" fill="white"/>
<path d="M75.2482 18.8561L39.9355 117.384L38.9546 117.667C38.2001 117.874 37.521 117.667 37.0871 117.138C36.8042 116.78 36.6344 116.327 36.6155 115.779L34.2953 31.0305C34.2198 28.4446 35.993 25.972 38.2189 25.4812L72.4942 18.1011C73.5505 17.8746 74.5503 18.1577 75.2482 18.8561Z" fill="#E9E8E9"/>
<path d="M66.7427 23.0275L44.4837 27.8784C43.6725 28.0482 43.0123 27.4442 42.9934 26.5194L42.918 23.6126L68.0821 18.2144L68.1198 21.0834C68.1387 21.9894 67.5162 22.8576 66.7427 23.0275Z" fill="#073334"/>
<path d="M58.1969 22.8387L52.6321 24.0467L52.6133 23.5937L58.1969 22.3857V22.8387Z" fill="#071C1C"/>
<path d="M59.6119 22.3103C59.6119 22.5745 59.4421 22.8388 59.2158 22.8765C58.9894 22.9331 58.8008 22.7444 58.8008 22.4801C58.8008 22.2159 58.9706 21.9516 59.1969 21.9139C59.4044 21.8573 59.5931 22.046 59.6119 22.3103Z" fill="#071C1C"/>
<path d="M71.5895 77.0855C61.7615 79.6147 51.7827 82.1628 41.6717 84.7487C41.3888 73.235 41.087 61.6457 40.7852 49.9432C51.0281 47.565 61.1202 45.2245 71.0802 42.9028C71.2688 54.3788 71.4197 65.7793 71.5895 77.0855ZM64.4968 69.6298C64.7231 69.4222 64.9495 69.2335 65.0438 68.9126C65.4777 68.4973 65.7229 67.95 66.0247 67.4215C66.2699 67.1006 66.4208 66.7608 66.5529 66.3833C66.8736 65.8737 67.0811 65.3263 67.1943 64.7223C67.4206 64.2882 67.5338 63.8541 67.5904 63.3822C67.7602 63.1746 67.6847 62.9481 67.7036 62.7216C67.7224 62.6838 67.7224 62.665 67.7036 62.6272C67.8733 62.4196 67.8733 62.1742 67.9111 61.9666C68.0997 60.1923 68.0243 58.5125 67.5338 56.9647C67.232 56.021 66.9113 55.0961 66.2888 54.4166C65.6286 53.2086 64.6477 52.397 63.5158 51.8118C62.6292 51.2833 61.6672 51.0191 60.6297 50.9436C58.5924 50.8303 56.574 51.4532 54.5368 52.3781C54.4424 52.3781 54.3858 52.4158 54.3292 52.5102C54.2161 52.5102 54.1029 52.548 54.0086 52.6235C53.8765 52.6423 53.7633 52.6612 53.669 52.8122C53.6124 52.85 53.537 52.8688 53.4804 52.9066C52.9899 53.0387 52.5561 53.3407 52.1411 53.6616C50.6886 54.4543 49.387 55.5113 48.2552 56.9081C47.312 57.7386 46.6706 58.8333 46.0858 59.9658C45.4256 61.2305 44.954 62.5517 44.8786 63.9485C44.5767 65.2697 44.6711 66.4966 44.9729 67.6668C45.0483 68.2331 45.237 68.7427 45.4445 69.2335C45.784 70.0073 46.1613 70.7812 46.7838 71.272C46.8404 71.4418 46.9536 71.574 47.1045 71.6306C47.9345 72.5555 48.9531 73.1783 50.1227 73.5181C50.5942 73.7446 51.0658 73.9522 51.6129 73.9145C51.6506 73.99 51.7261 74.0088 51.8015 73.9711C51.9336 74.1221 52.1222 74.0655 52.292 74.0466C52.7258 74.1787 53.1597 74.2542 53.6502 74.141C54.367 74.3108 55.1215 74.1976 55.8761 74.0655C55.9893 74.2353 56.159 74.3486 56.3477 74.3675C56.3665 74.4052 56.3854 74.4052 56.4231 74.4052C57.1022 74.9715 57.8568 75.4245 58.6113 75.8586C58.8754 76.1417 59.2149 76.3116 59.5356 76.5003C60.0827 76.8401 60.3468 76.708 60.7618 75.9341C60.7429 75.1413 60.724 74.3675 60.724 73.5747C60.7429 73.2727 60.7806 72.9518 61.007 72.6498C61.6861 72.1025 62.4972 71.7816 63.1197 71.0455C63.5158 70.7623 63.8743 70.4415 64.1572 70.0073C64.2893 69.9696 64.4213 69.8186 64.4968 69.6298Z" fill="#FFFEFD"/>
<path d="M63.5136 51.8118C64.6454 52.397 65.6075 53.2086 66.2866 54.4166C66.2489 54.5865 66.2111 54.7752 66.098 54.9262C65.7207 55.4925 65.3623 56.0965 64.9473 56.625C64.7964 56.8137 64.8718 57.1912 64.5511 57.2101C64.2493 57.5876 63.9475 57.9651 63.6457 58.3426C63.457 58.3803 63.3816 58.4936 63.3816 58.7012C63.1929 58.739 63.0609 58.8711 62.9855 59.0976C62.7214 59.3052 62.3441 59.3052 62.1932 59.7582C62.0045 59.8337 61.8348 59.8337 61.6461 60.0224C61.2311 60.4377 60.7595 60.8152 60.2314 61.0039C59.9861 61.0983 59.7409 61.2304 59.5334 61.4758C58.8166 61.6457 58.1186 61.8156 57.4018 62.0043C57.0245 62.2497 56.7227 62.1365 56.4398 61.9288C56.3832 61.6835 56.5152 61.3437 56.3077 61.155C56.3077 60.3433 56.3077 59.5317 56.2323 58.7201C56.2134 58.5125 56.2889 58.2482 56.1002 58.1161C56.0814 57.984 56.0814 57.8329 56.0625 57.7008C56.3077 57.531 56.138 57.2667 56.2889 57.078C56.7416 56.4173 57.2886 55.87 57.798 55.2471C58.0432 55.2471 58.0809 54.813 58.3261 54.813C58.5148 54.7941 58.6091 54.662 58.5902 54.4543C59.0052 54.4543 59.2505 53.9447 59.5711 53.7937C60.703 53.2463 61.7593 52.2271 62.9855 52.1705C63.2307 52.1893 63.4193 52.095 63.5136 51.8118Z" fill="#F58843"/>
<path d="M44.8398 63.9862C44.9153 62.5894 45.3869 61.2682 46.0471 60.0036C46.6319 58.8711 47.2733 57.7574 48.2164 56.9458C48.3862 57.3233 48.5371 57.7952 48.7823 58.0028C49.1219 58.3048 49.4426 58.6634 49.7255 59.0221C50.4801 60.0036 51.4987 60.5509 52.4419 61.2116C52.5928 61.3248 52.7437 61.3437 52.9323 61.2682C52.9889 62.2308 53.0267 63.2123 53.0078 64.1938C52.7814 64.2504 52.5739 64.0806 52.3476 64.2127C52.1023 63.9862 51.8005 64.2504 51.5364 64.2504C51.4987 64.2504 51.4421 64.2693 51.4044 64.2882C51.3667 64.2882 51.3289 64.3071 51.2723 64.3071C51.1592 64.1561 50.9705 64.0994 50.8008 64.1372C49.7633 64.3448 48.7069 64.5713 47.7448 65.3263C47.3487 65.4207 47.0092 65.6661 46.6319 65.9303C46.066 66.3267 45.5755 66.8929 44.9342 67.1006C44.9153 66.0624 44.8776 65.0243 44.8398 63.9862Z" fill="#F89D26"/>
<path d="M51.2744 64.2882C51.3121 64.2694 51.3499 64.2693 51.4065 64.2693C51.3876 64.5147 51.0292 64.4203 51.048 64.6657C51.0858 64.779 51.1424 64.779 51.2178 64.779C51.2933 64.779 51.331 64.7979 51.331 64.93C50.8971 65.0432 50.4444 65.1376 49.9917 65.2508C50.0483 67.7424 50.1049 70.1584 50.1615 72.5744C50.4255 72.7631 50.8971 72.5744 50.8971 73.084C50.6708 73.386 50.4444 72.9896 50.218 73.235C50.1426 73.3294 50.1426 73.4237 50.1426 73.537C48.973 73.1972 47.9544 72.5744 47.1244 71.6495L47.1433 71.6117C47.2753 71.4985 47.4828 71.4419 47.4828 71.1965C47.3696 71.0832 47.2376 71.1776 47.1055 71.1965C47.0489 70.9511 47.313 70.8379 47.3885 70.4981C47.3508 69.0259 47.313 67.4215 47.2753 65.8171C47.4639 65.6283 47.8035 65.7038 47.7846 65.3075C48.7844 65.081 49.7653 64.5714 50.7651 64.4204C50.916 64.4015 51.1046 64.3449 51.2744 64.2882ZM48.5958 71.9137C48.5015 71.9515 48.3694 71.9515 48.3694 72.1402C48.3883 72.2157 48.4449 72.2346 48.5203 72.1969C48.5958 72.1214 48.5769 72.0081 48.5958 71.9137C48.6335 71.876 48.7278 71.876 48.6524 71.8005C48.6146 71.8382 48.6146 71.876 48.5958 71.9137ZM49.9728 64.8545L50.0105 64.8733V64.8356L49.9728 64.8545Z" fill="#F26C37"/>
<path d="M50.104 73.5558C50.1229 73.4615 50.104 73.3482 50.1795 73.2538C50.4059 73.0085 50.6322 73.4048 50.8586 73.1028C50.8586 72.5743 50.387 72.782 50.1229 72.5932C50.0663 70.1961 50.0097 67.7612 49.9531 65.2697C50.4247 65.1565 50.8586 65.0432 51.2924 64.9488C51.2924 64.8167 51.2359 64.7978 51.1793 64.7978C51.1038 64.7978 51.0472 64.7978 51.0095 64.6846C51.0095 64.4392 51.349 64.5336 51.3679 64.2882C51.4056 64.2693 51.4622 64.2693 51.4999 64.2505C51.7452 64.4958 52.047 64.2127 52.3111 64.2127C52.2545 64.6091 52.6695 64.3448 52.7261 64.5713C52.6318 64.6091 52.5374 64.628 52.4431 64.8545C52.462 65.5151 52.4809 66.2701 52.4809 66.9685C52.3488 67.1761 52.1413 67.1383 52.1413 67.3837C52.6695 67.6857 52.179 68.2142 52.1413 68.554C52.1413 68.9126 52.1602 69.158 52.1602 69.4033C52.3111 69.5732 52.4243 69.7053 52.5563 69.8563C52.5752 70.4415 52.594 70.9888 52.594 71.5551C52.594 72.1402 52.7072 72.6876 52.5752 73.235C52.3865 73.5181 52.1979 73.4992 52.0281 73.5558C51.8018 73.6125 51.6509 73.7446 51.5754 74.0088C51.0472 73.99 50.5756 73.7823 50.104 73.5558ZM52.1979 64.7978C52.1224 65.1753 52.0659 65.534 52.2168 65.8171C52.2168 65.4773 52.1979 65.1376 52.1979 64.7978Z" fill="#F16541"/>
<path d="M52.9503 61.2682C52.7616 61.3248 52.6107 61.306 52.4598 61.2116C51.5166 60.551 50.498 59.9847 49.7435 59.0221C49.4794 58.6635 49.1398 58.3048 48.8003 58.0028C48.5551 57.7763 48.4041 57.3233 48.2344 56.9458C49.3662 55.5491 50.6866 54.4921 52.1203 53.6993C52.1014 53.907 51.7807 53.9825 51.9128 54.3033C52.6107 54.3033 52.856 54.8318 52.856 55.6246C52.856 55.7756 52.9314 55.8888 52.988 56.021C52.7805 56.3041 52.8748 56.5872 52.8748 56.8515C52.8937 58.3237 52.9126 59.796 52.9503 61.2682ZM51.7619 54.7752C51.9128 54.9073 52.026 54.8318 52.1203 54.6808C52.0826 54.5487 52.0448 54.511 51.9694 54.5298C51.8751 54.5487 51.7996 54.5676 51.7619 54.7752Z" fill="#F48138"/>
<path d="M59.5547 61.5136C59.7433 61.2682 59.9886 61.1361 60.2526 61.0417C60.7808 60.853 61.2336 60.4943 61.6674 60.0602C61.8561 59.8715 62.0258 59.8715 62.2145 59.796C62.1956 60.098 62.0447 60.4 62.0636 60.6831C61.8938 60.8152 61.6863 60.8152 61.7051 61.1361C62.0636 61.608 62.6295 61.0983 63.2897 61.1738C63.7613 61.6457 64.3649 62.2497 64.8742 62.7593C65.327 62.7593 65.6288 62.5517 65.9683 62.6083C66.157 63.0613 66.5154 63.1935 66.9681 63.0991C67.1756 63.6276 67.2133 64.1561 67.2133 64.7223C67.1002 65.3075 66.8738 65.8548 66.572 66.3833C66.2513 66.2512 66.7229 65.8926 66.5531 65.7038C66.2701 65.5906 66.1947 65.2508 66.0438 64.9677C65.4213 65.1187 64.8365 65.2697 64.2517 65.4018C64.1574 65.3263 64.0442 65.2886 64.0065 65.1942C63.8745 64.779 63.6292 64.6657 63.2331 64.7223C62.9313 64.7601 62.7426 64.5336 62.7049 64.175C62.6861 64.0051 62.7238 63.8163 62.6106 63.6842C62.4031 63.4955 62.1201 63.4955 61.8561 63.5332C61.724 63.4577 61.7806 63.2123 61.7051 63.2123C60.9506 63.1368 60.2715 63.0613 59.6113 62.9858C59.5736 62.4196 59.5736 61.9666 59.5547 61.5136Z" fill="#F9A841"/>
<path d="M58.3662 54.8507C58.1209 54.8507 58.0832 55.2848 57.838 55.2848C57.7248 55.0772 57.4418 55.1716 57.3286 54.9639C57.2532 54.6619 57.3475 54.3222 57.1966 54.0013C56.5552 53.8692 55.9705 53.3218 55.0462 53.9636C55.065 53.4351 54.7632 53.1142 54.9896 52.5857C54.5368 52.5479 54.1784 52.9821 53.8012 53.1519C53.6314 53.1519 53.5371 53.0764 53.4805 52.9254C53.5371 52.8877 53.6125 52.8688 53.6691 52.8311C53.8012 52.8311 53.9332 52.8311 54.0086 52.6423C54.103 52.5479 54.2161 52.5102 54.3293 52.5291C54.4236 52.5291 54.4991 52.5102 54.5368 52.3969C56.5552 51.4721 58.5925 50.8492 60.6298 50.9624C61.6673 51.0191 62.6482 51.3022 63.5159 51.8307C63.4216 52.1138 63.233 52.2082 63.0255 52.2082C61.7993 52.2648 60.743 53.2841 59.6112 53.8314C59.2905 53.9824 59.0452 54.4921 58.6302 54.4921C58.4416 54.5109 58.3473 54.6431 58.3662 54.8507ZM58.3284 51.3588C57.9134 51.4532 57.6116 51.5287 57.3286 51.6042C57.6305 51.5853 57.9323 51.6231 58.3284 51.3588ZM55.7441 52.3592C55.5932 52.2648 55.5366 52.3026 55.5177 52.4913C55.5932 52.5479 55.6686 52.5479 55.7441 52.3592Z" fill="#F07025"/>
<path d="M56.4622 61.9666C56.7451 62.1742 57.0469 62.2875 57.4242 62.0421C57.4431 62.3064 57.3865 62.6084 57.4997 62.9104C58.3674 62.8349 59.1031 63.118 59.3106 64.1184C59.9519 64.1372 60.6122 63.9862 60.7254 64.8356C61.046 64.93 61.3667 64.93 61.6497 64.8734C61.8006 65.0432 61.6874 65.3264 61.8383 65.4207C62.0647 65.6095 62.3665 65.5717 62.574 65.5717C62.8381 65.7605 62.8004 66.0625 62.8947 66.3267C63.8379 66.5155 64.9131 66.4966 65.3469 67.7801C65.5544 67.5347 65.7997 67.4781 66.026 67.4215C65.7242 67.9311 65.479 68.4974 65.0451 68.9126C64.9885 68.9126 64.9319 68.9315 64.8754 68.9315C64.7056 68.6295 64.4981 69.0447 64.366 69.0259C64.1963 68.8937 64.1019 68.7994 63.9699 68.705C63.8944 68.5162 64.0076 68.2142 63.8567 68.0255C63.5549 67.9311 63.2154 68.2331 62.8947 68.101C62.9135 67.648 62.7626 67.3082 62.4608 67.1006C62.2722 67.1384 62.0647 67.1761 61.9326 67.195C61.7063 67.1384 61.6119 66.9119 61.4233 66.9119C61.2724 67.0062 61.1215 67.0817 60.9706 67.1572C60.5179 66.591 60.0274 66.1191 59.386 65.8549C59.3672 65.7794 59.3106 65.7416 59.2351 65.7605V65.7794C59.2351 65.685 59.254 65.5717 59.1031 65.4774C58.8767 65.534 58.5938 65.6095 58.3108 65.6661C58.2731 65.6661 58.2165 65.685 58.1788 65.685C58.141 65.3264 58.2542 64.9111 58.0467 64.6091C57.8581 64.4015 57.5374 64.7601 57.3676 64.5336C57.3488 64.2127 57.311 63.8919 57.2922 63.4577C57.1035 63.9674 57.3488 64.326 57.0847 64.7601C56.8017 64.4581 57.0847 63.873 56.7829 63.5899C56.5942 63.9107 56.6885 64.1561 56.6697 64.3826C56.6508 64.5525 56.7263 64.7412 56.5376 64.8734C56.481 64.1184 56.5376 63.3256 56.3867 62.6084C56.4056 62.5706 56.4056 62.5329 56.3867 62.4951C56.5188 62.3064 56.4244 62.1365 56.4622 61.9666Z" fill="#F79847"/>
<path d="M66.0432 67.4215C65.798 67.4781 65.5716 67.5347 65.3641 67.7801C64.9303 66.4966 63.855 66.5155 62.9119 66.3267C62.8364 66.0625 62.8553 65.7605 62.5912 65.5717C62.3837 65.5717 62.1007 65.6095 61.8555 65.4207C61.7046 65.3264 61.8178 65.0432 61.6669 64.8734C61.3839 64.9489 61.0632 64.9489 60.7425 64.8356C60.6294 63.9862 59.9691 64.1372 59.3278 64.1184C59.1203 63.118 58.3846 62.8349 57.5169 62.9104C57.4037 62.6084 57.4603 62.3064 57.4414 62.0421C58.1582 61.8722 58.8562 61.7024 59.573 61.5136C59.573 61.9666 59.5919 62.4196 59.5919 62.9859C60.2521 63.0614 60.9312 63.1369 61.6857 63.2124C61.7612 63.2312 61.7046 63.4577 61.8366 63.5332C62.1007 63.5144 62.3837 63.4955 62.5912 63.6842C62.7044 63.7975 62.6666 64.0051 62.6855 64.175C62.7232 64.5336 62.9307 64.7601 63.2137 64.7224C63.6098 64.6657 63.855 64.779 63.9871 65.1942C64.0248 65.2886 64.138 65.3264 64.2323 65.4019C64.8171 65.2509 65.4019 65.1187 66.0244 64.9677C66.1753 65.232 66.2507 65.5717 66.5337 65.7039C66.7034 65.8926 66.2319 66.2512 66.5525 66.3834C66.4394 66.742 66.2696 67.1006 66.0432 67.4215Z" fill="#F89E46"/>
<path d="M53.4608 52.9255C53.5174 53.0765 53.6117 53.152 53.7814 53.152C54.1776 53.001 54.536 52.548 54.9699 52.5857C54.7246 53.1142 55.0453 53.4351 55.0264 53.9636C55.9508 53.3218 56.5544 53.8692 57.1769 54.0013C57.3278 54.3222 57.2335 54.6808 57.3089 54.964C57.4221 55.1527 57.7051 55.0583 57.8183 55.2848C57.3278 55.8888 56.7808 56.4551 56.3092 57.1157C56.1771 57.3045 56.328 57.5687 56.0828 57.7386C56.0639 57.4555 56.0262 57.1912 55.7244 57.1723C55.4037 56.9458 55.2151 56.474 54.7812 56.4362C54.5926 56.1908 54.3096 56.0965 54.0455 56.021C54.0455 55.9266 54.0267 55.8133 53.9512 55.7756C53.838 55.7945 53.8003 55.87 53.7626 55.9832C53.7249 56.0021 53.6871 56.0021 53.6494 55.9832C53.4608 55.719 53.1967 55.9832 52.9703 55.9832C52.9326 55.8511 52.8383 55.719 52.8383 55.5868C52.8383 54.7941 52.593 54.2656 51.8951 54.2656C51.763 53.9447 52.0837 53.8692 52.1026 53.6616C52.5553 53.3596 52.9892 53.0576 53.4608 52.9255Z" fill="#F4792E"/>
<path d="M67.2125 64.7223C67.2125 64.1749 67.1748 63.6276 66.9673 63.0991C66.5146 63.1934 66.1561 63.0613 65.9675 62.6083C65.6468 62.5517 65.3261 62.7404 64.8734 62.7593C64.3641 62.2497 63.7605 61.6457 63.2889 61.1738C62.6286 61.0983 62.0627 61.6079 61.7043 61.1361C61.6855 60.8341 61.893 60.8152 62.0627 60.6831C62.0439 60.3999 62.1948 60.0979 62.2136 59.7959C62.3646 59.3429 62.7418 59.3618 63.0059 59.1353C62.9871 59.2863 62.9871 59.4184 62.9682 59.5694C63.2889 59.6827 63.4209 59.0032 63.7416 59.1919C63.7982 59.3618 63.9114 59.5128 63.9302 59.7016C63.968 60.2489 64.2321 60.3056 64.6471 60.3244C65.0621 60.3433 65.5336 60.1734 65.8732 60.4377C66.043 60.6453 65.8543 61.0228 66.1373 61.2304C66.4202 61.2871 66.7598 61.1361 67.1559 61.0039C67.1559 60.5887 67.1371 60.2112 67.1371 59.8337C67.1371 59.6261 67.0239 59.3996 67.2502 59.1731C67.4011 59.9281 67.42 60.7397 67.42 61.5324C67.42 61.7212 67.3634 61.9288 67.5143 62.0798C67.6652 61.6834 67.4011 61.3059 67.6841 60.9096C67.8539 61.0228 67.7973 61.1927 67.8161 61.3248C67.8916 61.7401 67.6652 62.1931 67.7218 62.6083C67.7407 62.6272 67.7407 62.6649 67.7218 62.7027C67.5898 62.9103 67.3068 63.1368 67.6086 63.3633C67.5521 63.8541 67.4389 64.3071 67.2125 64.7223ZM67.0993 62.1931C67.1748 62.0609 67.1748 61.9666 67.0616 61.9099C67.005 62.0232 66.9861 62.1364 67.0993 62.1931Z" fill="#F8AF41"/>
<path d="M51.5938 73.9522C51.6692 73.6879 51.8201 73.5558 52.0465 73.4992C52.2162 73.4614 52.4049 73.4614 52.5935 73.1783C52.7256 72.6309 52.6124 72.0836 52.6124 71.4984C52.6124 70.9322 52.5935 70.3848 52.5747 69.7997C52.4426 69.6487 52.3106 69.5166 52.1785 69.3467C52.1785 69.1013 52.1597 68.8559 52.1597 68.4973C52.1974 68.1576 52.6878 67.6291 52.1597 67.3271C52.1597 67.0817 52.386 67.1194 52.4992 66.9118C52.4803 66.2323 52.4615 65.4773 52.4615 64.7978C52.5558 64.5713 52.6501 64.5524 52.7444 64.5147C52.7633 65.3263 52.7822 66.1568 52.801 66.9684C52.5369 67.3837 52.7444 67.7423 52.6878 68.1576C52.8765 68.0066 52.8953 67.8178 52.9519 67.6479C52.9142 67.4214 52.7633 67.2327 52.801 66.9684C53.0462 66.7042 52.8953 66.4399 52.9142 66.1757C52.9708 65.5528 52.7633 64.9677 52.9897 64.3071C53.0274 64.7601 53.0651 65.2131 53.084 65.6661C53.0462 66.0813 53.0462 66.4966 53.1217 66.8929C53.084 67.1761 53.0274 67.4592 53.216 67.6479C53.1783 68.0066 53.2915 68.2708 53.4424 68.5351C53.6499 68.8748 53.8574 69.2146 54.0837 69.5354C54.2347 70.9888 53.7631 72.5743 54.1781 73.9711C53.9328 74.0466 53.7819 74.1032 53.6122 74.1409C53.1406 74.2353 52.6878 74.1787 52.254 74.0466C52.3483 73.6879 52.6878 73.8956 52.8765 73.5747C52.5935 73.6124 52.3106 73.7257 52.1031 73.5936C51.971 73.7446 51.8578 73.8578 51.7635 73.9711C51.7069 74.0466 51.6315 74.0277 51.5938 73.9522ZM53.1406 73.7823C53.1783 73.8012 53.216 73.8201 53.2537 73.8012C53.3103 73.7634 53.3103 73.7068 53.2537 73.7068C53.2349 73.6879 53.1783 73.7446 53.1406 73.7823Z" fill="#F06348"/>
<path d="M67.7023 62.6461C67.6457 62.2308 67.8721 61.7778 67.7966 61.3626C67.7778 61.2305 67.8344 61.0417 67.6646 60.9473C67.3816 61.3248 67.6269 61.7212 67.4948 62.1176C67.3628 61.9666 67.4194 61.7401 67.4005 61.5702C67.3816 60.7586 67.3816 59.9658 67.2307 59.2108C67.2119 59.0221 67.2873 58.7956 67.1364 58.6635C66.7403 58.6257 66.3253 58.9277 65.9292 58.8145C65.9103 58.5502 65.8914 58.3048 65.8726 58.0972C65.7594 57.9273 65.6462 57.833 65.4576 57.7763C65.3067 57.8141 65.118 57.8518 64.9482 57.9085C64.6842 57.7952 64.5144 57.6065 64.5521 57.2478C64.8728 57.229 64.8162 56.8515 64.9482 56.6627C65.3632 56.1342 65.7028 55.5302 66.0989 54.964C66.2121 54.7941 66.2498 54.6242 66.2876 54.4543C66.9101 55.1338 67.2307 56.0587 67.5326 57.0025C68.0419 58.5502 68.0985 60.249 67.9098 62.0043C67.891 62.1931 67.8721 62.4385 67.7023 62.6461Z" fill="#F6BE3B"/>
<path d="M64.1179 70.064C63.835 70.4981 63.4766 70.819 63.0804 71.1021C62.8163 70.8756 62.59 71.3664 62.307 71.3475C62.1561 71.3475 62.175 71.0266 61.9675 71.0644C61.8165 71.2154 61.892 71.3664 61.8731 71.4985C61.5336 71.574 61.1752 71.7627 60.8356 71.4796C60.7791 71.3475 60.8545 71.0644 60.6093 70.9322C60.1943 70.9134 59.6472 71.1399 59.3831 70.668C59.3454 70.3282 59.7038 70.2716 59.7038 70.0262C59.5718 69.8186 59.3831 70.2716 59.2322 70.064C59.1945 69.9319 59.1756 69.7809 59.2511 69.6299C59.3831 69.46 59.6284 69.5544 59.7227 69.309C59.8547 69.2524 59.9868 69.1957 60.1188 69.1391C60.5338 69.0447 60.9488 69.0636 61.345 68.7239C61.5147 68.3652 61.6656 68.7994 61.8354 68.6672C61.892 68.5351 61.9297 68.4407 62.0806 68.4407C62.4202 68.705 62.7786 68.9881 63.0427 69.3656C63.4388 69.2524 63.7218 69.4977 64.0991 69.4789C63.9293 69.762 64.0425 69.913 64.1179 70.064Z" fill="#F58C4E"/>
<path d="M47.7638 65.3264C47.7827 65.7416 47.4431 65.6661 47.2545 65.836C47.2922 67.4404 47.3299 69.0447 47.3677 70.517C47.2922 70.8567 47.0281 70.97 47.0847 71.2153C46.9715 71.2531 46.8772 71.272 46.764 71.3097C46.1415 70.8001 45.7643 70.0451 45.4247 69.2712C45.2172 68.7805 45.0286 68.2708 44.9531 67.7046C44.9531 67.5159 44.9531 67.3082 44.9531 67.1195C45.5756 66.893 46.0849 66.3267 46.6509 65.9492C47.0093 65.6661 47.3488 65.4207 47.7638 65.3264Z" fill="#F17030"/>
<path d="M53.6328 74.1976C53.7837 74.141 53.9346 74.1032 54.1987 74.0277C53.7837 72.6309 54.2553 71.0454 54.1044 69.5921C54.3874 69.5732 54.5194 69.9129 54.8024 69.9129C54.8212 70.0828 55.0099 70.0073 55.0476 70.1394C55.5003 71.0266 56.1605 71.6872 56.8208 72.3289C56.6133 72.7819 56.783 73.2916 56.4058 73.7446C56.2549 73.8767 56.0662 74.0654 55.8399 74.1221C55.1042 74.2542 54.3496 74.3486 53.6328 74.1976Z" fill="#F06150"/>
<path d="M59.7042 69.3278C59.6099 69.5732 59.3647 69.4599 59.2326 69.6487C59.1572 69.7997 59.1761 69.9507 59.2138 70.0828C59.3458 70.2904 59.5345 69.8374 59.6854 70.0451C59.6854 70.3093 59.3458 70.3471 59.3647 70.6868C59.6288 71.1776 60.1947 70.9322 60.5908 70.9511C60.836 71.0643 60.7795 71.3474 60.8172 71.4984C61.1567 71.7816 61.5151 71.5739 61.8547 71.5173C61.8736 71.6306 61.8547 71.7816 62.0056 71.7438C62.081 71.6872 62.0999 71.6306 62.081 71.5551C62.0245 71.4796 61.9301 71.4984 61.8547 71.5173C61.8736 71.3663 61.7981 71.2342 61.949 71.0832C62.1565 71.0266 62.1376 71.3663 62.2886 71.3663C62.5715 71.3852 62.7979 70.8944 63.062 71.1209C62.4395 71.8571 61.6283 72.1968 60.9492 72.7253C60.7417 73.0273 60.6851 73.3293 60.6663 73.6502C60.2513 73.5747 59.7608 73.7068 59.4401 73.4048C59.2892 73.4803 59.1949 73.5369 59.0817 73.5747C59.044 73.4803 58.9874 73.4048 58.9497 73.3104C59.0817 73.2538 59.1949 73.1783 59.1949 72.9707C59.2138 71.7627 59.1195 70.5924 58.7422 69.5354C59.0817 69.4788 59.4024 69.4033 59.7042 69.3278Z" fill="#F37E4F"/>
<path d="M58.9868 73.3105C59.0246 73.4048 59.0811 73.4803 59.1189 73.5747C58.8925 73.7823 59.0246 73.99 59.0057 74.2165C58.9491 74.7827 58.8359 75.349 58.5907 75.9152C57.8361 75.4811 57.0816 75.0281 56.4025 74.4618C56.5723 74.3297 56.6666 74.1787 56.4968 74.0088C56.3459 74.1221 56.3271 74.2731 56.3271 74.4241C56.1196 74.3863 55.9687 74.292 55.8555 74.1221C56.0818 74.0466 56.2516 73.8767 56.4214 73.7446C56.7986 73.2916 56.61 72.782 56.8364 72.329C56.9873 72.2912 57.0816 72.3478 57.1948 72.4233C57.7418 72.782 58.3643 73.0273 58.9868 73.3105Z" fill="#EF5F57"/>
<path d="M58.5938 75.8964C58.839 75.349 58.9522 74.7827 59.0088 74.1976C59.2163 73.99 59.1031 73.7824 59.1219 73.5559C59.2351 73.4992 59.3294 73.4426 59.4803 73.386C59.801 73.688 60.2726 73.5559 60.7065 73.6314C60.7253 74.4052 60.7442 75.198 60.7442 75.9907C60.3292 76.7646 60.0651 76.8967 59.5181 76.557C59.1974 76.3494 58.8578 76.1984 58.5938 75.8964Z" fill="#F49222"/>
<path d="M64.1176 70.0639C64.0422 69.9129 63.929 69.7619 64.0422 69.4977C63.6838 69.5166 63.382 69.2712 62.9858 69.3844C62.7029 69.0069 62.3445 68.7238 62.0238 68.4596C61.8729 68.4596 61.8351 68.5539 61.7786 68.6861C61.6276 68.8371 61.4767 68.4029 61.2881 68.7427C61.2881 68.1575 61.024 67.7046 60.9297 67.1572C61.0806 67.0817 61.2126 66.9873 61.3824 66.9118C61.5899 66.9118 61.6654 67.1383 61.8917 67.1949C62.0426 67.176 62.2313 67.1383 62.4199 67.1006C62.7217 67.3082 62.8726 67.6479 62.8538 68.1009C63.1745 68.2331 63.5329 67.9311 63.8158 68.0254C63.9667 68.2331 63.8535 68.5351 63.929 68.7049C64.061 68.8182 64.1742 68.8937 64.3251 69.0258C64.4383 69.0258 64.6458 68.6106 64.8345 68.9314C64.7779 69.1579 64.5704 69.1013 64.4572 69.3089C64.4572 69.4033 64.4572 69.5166 64.4383 69.6298C64.4195 69.8186 64.2874 69.9696 64.1176 70.0639Z" fill="#F5934C"/>
<path d="M44.9547 67.1006C44.9547 67.2893 44.9547 67.497 44.9547 67.6857C44.6529 66.5155 44.5586 65.2886 44.8604 63.9673C44.8793 65.0243 44.917 66.0625 44.9547 67.1006Z" fill="#F8AF41"/>
<path d="M51.7812 74.0277C51.8944 73.9145 51.9887 73.8012 52.1208 73.6502C52.3283 73.7824 52.5924 73.6691 52.8942 73.6313C52.7056 73.9334 52.366 73.7446 52.2717 74.1032C52.1019 74.1032 51.9133 74.1787 51.7812 74.0277Z" fill="#F16541"/>
<path d="M64.4961 69.6299C64.4961 69.5166 64.4961 69.3845 64.515 69.309C64.6281 69.1014 64.8356 69.158 64.8922 68.9315C64.9488 68.9315 65.0054 68.9126 65.062 68.9126C64.9488 69.2335 64.7225 69.4222 64.4961 69.6299Z" fill="#F58C4E"/>
<path d="M67.5915 63.3822C67.2896 63.1557 67.5537 62.9481 67.7046 62.7216C67.6858 62.9481 67.7612 63.1746 67.5915 63.3822Z" fill="#F6BE3B"/>
<path d="M46.7656 71.3097C46.8788 71.272 46.9731 71.2531 47.0863 71.2153C47.1052 71.3475 47.1052 71.4985 47.124 71.6306L47.1052 71.6683C46.9165 71.6117 46.8222 71.4796 46.7656 71.3097Z" fill="#F26C37"/>
<path d="M56.3281 74.4241C56.3281 74.2731 56.347 74.1221 56.4979 74.0089C56.6677 74.1787 56.5733 74.3109 56.4036 74.4619C56.3659 74.4619 56.347 74.4619 56.3281 74.4241Z" fill="#F06348"/>
<path d="M54.0075 52.6423C53.9321 52.85 53.8 52.8311 53.668 52.8311C53.7434 52.6801 53.8755 52.6612 54.0075 52.6423Z" fill="#F4792E"/>
<path d="M54.5356 52.3781C54.4979 52.4914 54.4224 52.5291 54.3281 52.5102C54.3659 52.4159 54.4413 52.3781 54.5356 52.3781Z" fill="#F4792E"/>
<path d="M64.5526 57.2289C64.5149 57.5876 64.6847 57.7763 64.9488 57.8896C65.1185 57.8518 65.3072 57.7952 65.4581 57.7574C65.6467 57.8141 65.7599 57.9084 65.8731 58.0783C65.8919 58.2859 65.9108 58.5313 65.9297 58.7956C66.3258 58.9088 66.7408 58.6068 67.1369 58.6446C67.2879 58.7767 67.2124 59.0032 67.2313 59.1919C67.0049 59.3996 67.1181 59.6261 67.1181 59.8526C67.0992 60.2301 67.1181 60.6076 67.1369 61.0228C66.7408 61.1738 66.4013 61.3059 66.1183 61.2493C65.8354 61.0606 66.024 60.6642 65.8542 60.4566C65.5147 60.1923 65.0431 60.3433 64.6281 60.3433C64.2131 60.3244 63.9301 60.2489 63.9113 59.7204C63.8924 59.5317 63.7981 59.3807 63.7226 59.2108C63.3831 59.0409 63.2699 59.7204 62.9492 59.5883C62.9681 59.4562 62.9681 59.3052 62.9869 59.1542C63.0435 58.9277 63.1756 58.7956 63.3831 58.7578C63.5717 58.7389 63.666 58.6068 63.6472 58.3992C63.949 57.9839 64.2508 57.6064 64.5526 57.2289Z" fill="#F9B63B"/>
<path d="M54.8217 56.4362C55.2744 56.474 55.4442 56.9458 55.7649 57.1723C55.746 57.229 55.746 57.2856 55.746 57.3233C55.614 57.38 55.4819 57.3611 55.331 57.5687C55.8026 57.7763 55.4631 58.4747 55.8403 58.8145C55.8592 58.3992 55.8592 57.984 55.8781 57.5876C55.9535 57.6442 56.029 57.7008 56.1233 57.7386C56.1421 57.8707 56.1421 58.0217 56.161 58.1538C56.1987 58.3615 56.0667 58.6446 56.2931 58.7578C56.3685 59.5506 56.3685 60.3622 56.3685 61.1927C56.3874 61.6268 56.3874 62.061 56.4062 62.4951C56.4251 62.5328 56.4251 62.5706 56.4062 62.6083C55.8969 62.5517 55.4819 62.2686 55.0669 61.9666C54.8971 61.8345 54.8406 61.5891 54.7462 61.3815C54.5576 60.9473 54.7274 60.4566 54.7274 59.9847C54.7085 59.041 54.6896 58.0972 54.6708 57.1535C54.6331 56.927 54.5387 56.6438 54.8217 56.4362Z" fill="#E5E4E1"/>
<path d="M56.3658 62.4762C56.347 62.0421 56.347 61.608 56.3281 61.1738C56.5168 61.3626 56.3847 61.7023 56.4602 61.9477C56.4224 62.1365 56.5168 62.3063 56.3658 62.4762Z" fill="#E0D9D5"/>
<path d="M63.6493 58.3615C63.6681 58.5879 63.5738 58.7012 63.3852 58.7201C63.3663 58.5313 63.4606 58.3992 63.6493 58.3615Z" fill="#F8AF41"/>
<path d="M56.2735 58.7578C56.0471 58.6446 56.1792 58.3614 56.1414 58.1538C56.3301 58.2859 56.2546 58.5502 56.2735 58.7578Z" fill="#E0D9D5"/>
<path d="M58.3657 54.8507C58.3468 54.6431 58.4411 54.5109 58.6297 54.4921C58.6297 54.6997 58.5543 54.8318 58.3657 54.8507Z" fill="#F4792E"/>
<path d="M54.8191 56.4362C54.5362 56.6438 54.6494 56.9081 54.6494 57.1535C54.6682 58.0972 54.6871 59.041 54.706 59.9847C54.706 60.4566 54.5362 60.9473 54.7248 61.3815C54.8191 61.5891 54.8757 61.8345 55.0455 61.9666C55.4605 62.2497 55.8566 62.5517 56.3848 62.6083C56.5357 63.3256 56.4791 64.1183 56.5357 64.8733C56.5357 65.0243 56.5357 65.1753 56.5357 65.3263C56.5546 65.5906 56.4791 65.8548 56.4414 66.1191C56.4037 66.1379 56.3471 66.138 56.3094 66.1568C56.2905 66.0058 56.2905 65.8548 56.2716 65.7038C56.2716 65.5528 56.2716 65.4018 56.2528 65.2508C56.2528 64.93 56.2339 64.5902 56.2339 64.2693C56.0453 64.1372 55.8944 64.0051 55.7057 63.873C55.5548 63.8918 55.3662 63.9107 55.1587 63.9485C54.7248 63.269 53.9514 63.4388 53.2535 63.2312C53.2723 63.8352 53.2723 64.3637 53.2912 64.8922C53.2912 64.9866 53.3101 65.081 53.3101 65.1942C53.1969 65.2697 53.1403 65.3641 53.2157 65.4773C53.2912 65.6283 53.2157 65.6661 53.1026 65.7038C53.0648 65.2508 53.0271 64.7978 53.0082 64.3448C53.0082 64.2882 53.0082 64.2316 53.0082 64.1938C53.0271 63.2123 53.0082 62.2308 52.9328 61.2682C52.9139 59.7959 52.8762 58.3237 52.8573 56.8326C52.8573 56.5683 52.763 56.2852 52.9705 56.0021C53.178 56.172 53.4232 56.021 53.6496 56.0021C53.6873 56.021 53.7251 56.021 53.7628 56.0021C53.8382 56.1153 53.9326 56.0776 54.0457 56.0398C54.3476 56.1153 54.6116 56.2097 54.8191 56.4362Z" fill="#E0D9D5"/>
<path d="M51.2743 64.2882C51.1045 64.3259 50.9159 64.4014 50.7461 64.4203C49.7463 64.5713 48.7654 65.0809 47.7656 65.3074C48.7277 64.5524 49.784 64.3259 50.8215 64.1183C50.9724 64.0994 51.1611 64.1372 51.2743 64.2882Z" fill="#F17030"/>
<path d="M53.0093 64.1938C53.0093 64.2504 53.0093 64.3071 53.0093 64.3448C52.7829 65.0054 52.9904 65.5906 52.9338 66.2134C52.9149 66.4777 53.0659 66.7419 52.8206 67.0062C52.8018 66.1946 52.7829 65.3641 52.764 64.5524C52.7074 64.3259 52.2924 64.5902 52.349 64.1938C52.5943 64.0617 52.7829 64.2504 53.0093 64.1938Z" fill="#F26C37"/>
<path d="M52.3463 64.1938C52.0822 64.2127 51.7804 64.4958 51.5352 64.2316C51.7992 64.2316 52.1011 63.9673 52.3463 64.1938Z" fill="#F17030"/>
<path d="M47.1041 71.6306C47.0853 71.4984 47.0853 71.3474 47.0664 71.2153C47.1985 71.1964 47.3305 71.1021 47.4437 71.2153C47.4437 71.4607 47.2362 71.5173 47.1041 71.6306Z" fill="#F07025"/>
<path d="M48.5936 71.9137C48.5936 72.0081 48.5936 72.1025 48.5181 72.1968C48.4615 72.2157 48.4049 72.2157 48.3672 72.1402C48.3672 71.9515 48.4992 71.9514 48.5936 71.9137Z" fill="#F16541"/>
<path d="M48.5938 71.9137C48.6126 71.876 48.6315 71.8382 48.6503 71.8005C48.7069 71.876 48.6126 71.876 48.5938 71.9137Z" fill="#F16541"/>
<path d="M49.9727 64.8547L50.0108 64.8356L49.9917 64.8738L49.9727 64.8547Z" fill="#F16541"/>
<path d="M52.1971 64.7979C52.1971 65.1376 52.216 65.4773 52.216 65.8171C52.0651 65.534 52.1217 65.1754 52.1971 64.7979Z" fill="#F06150"/>
<path d="M51.7656 54.7752C51.8034 54.5864 51.8788 54.5676 51.9731 54.5487C52.0486 54.5298 52.0863 54.5676 52.124 54.6997C52.0297 54.8129 51.9165 54.9073 51.7656 54.7752Z" fill="#F4792E"/>
<path d="M58.3279 51.3588C57.9129 51.6231 57.6111 51.5853 57.3281 51.6042C57.6299 51.5287 57.9129 51.4532 58.3279 51.3588Z" fill="#F17030"/>
<path d="M55.7459 52.3592C55.6704 52.5479 55.595 52.5479 55.5195 52.4913C55.5384 52.3026 55.6138 52.2648 55.7459 52.3592Z" fill="#F4792E"/>
<path d="M56.308 66.1568C56.3457 66.1379 56.4023 66.1379 56.44 66.1191C56.5155 66.2134 56.6098 66.2135 56.723 66.1757C57.2512 66.0436 57.7605 65.8926 58.2887 65.7604C58.5905 65.7416 58.8923 65.8548 59.213 65.7604V65.7416C59.2319 65.836 59.2885 65.8548 59.3639 65.836C60.0053 66.1002 60.5146 66.5721 60.9485 67.1383C61.0428 67.6857 61.3069 68.1387 61.3069 68.7238C60.9107 69.0636 60.4957 69.0447 60.0807 69.1391C59.4582 69.0447 58.8169 69.4033 58.1944 69.5166C57.9303 69.5543 57.6662 69.6676 57.421 69.5543C57.5719 68.6672 57.553 67.8367 57.4775 67.0062C57.138 66.9307 56.8173 67.1572 56.5155 67.1194C56.6664 66.8552 56.8739 66.7608 57.1003 66.7042C57.2512 66.6664 57.421 66.6853 57.5153 66.4588C57.836 66.3644 58.1755 66.3456 58.4773 66.1191C58.1566 66.2134 57.8171 66.0813 57.5153 66.4588C57.0437 66.6098 56.5532 66.6853 56.0816 66.6476C55.8741 66.6287 55.6289 66.6664 55.6289 66.3078C55.8553 66.2701 56.0816 66.2134 56.308 66.1568Z" fill="#EEEBE9"/>
<path d="M56.5352 65.3263C56.5352 65.1753 56.5352 65.0243 56.5352 64.8733C56.7238 64.7223 56.6483 64.5525 56.6672 64.3826C56.6861 64.1372 56.5917 63.9107 56.7804 63.5898C57.0822 63.873 56.7992 64.4581 57.0822 64.7601C57.3463 64.326 57.1011 63.9673 57.2897 63.4577C57.3274 63.8918 57.3463 64.2127 57.3652 64.5336C57.5349 64.7601 57.8556 64.4203 58.0443 64.6091C58.2518 64.9111 58.1386 65.3263 58.1763 65.685C57.7236 65.7605 57.2708 66.0058 56.969 65.9492C56.5917 65.8171 56.7992 65.383 56.5352 65.3263Z" fill="#F5934C"/>
<path d="M56.5357 65.3264C56.7998 65.383 56.5923 65.8171 56.9507 65.9681C57.2525 66.0247 57.7053 65.7794 58.158 65.7039C58.1957 65.7039 58.2523 65.685 58.29 65.685C58.29 65.7227 58.29 65.7416 58.29 65.7793C57.7619 65.9115 57.2525 66.0625 56.7244 66.1946C56.6112 66.2324 56.498 66.2324 56.4414 66.138C56.4791 65.8549 56.5546 65.5906 56.5357 65.3264Z" fill="#F37E4F"/>
<path d="M58.2891 65.7605C58.2891 65.7227 58.2891 65.7039 58.2891 65.6661C58.572 65.5906 58.855 65.534 59.0813 65.4774C59.2134 65.5717 59.2134 65.6661 59.2134 65.7794C58.8927 65.8549 58.6097 65.7416 58.2891 65.7605Z" fill="#F5934C"/>
<path d="M59.3658 65.8549C59.2903 65.8737 59.2337 65.836 59.2148 65.7605C59.3092 65.7416 59.3469 65.7794 59.3658 65.8549Z" fill="#F5934C"/>
<path d="M56.1038 57.7386C56.0284 57.682 55.9529 57.6253 55.8586 57.5876C55.8586 57.4743 55.8209 57.38 55.7266 57.3422C55.7266 57.2856 55.7266 57.2478 55.7454 57.1912C56.0472 57.1912 56.1038 57.4555 56.1038 57.7386Z" fill="#F58843"/>
<path d="M53.6713 55.9832C53.4449 56.0021 53.1808 56.1531 52.9922 55.9832C53.2186 55.9832 53.4826 55.719 53.6713 55.9832Z" fill="#F48138"/>
<path d="M54.0642 56.021C53.951 56.0587 53.8567 56.0965 53.7812 55.9832C53.8001 55.8699 53.8567 55.7944 53.9699 55.7756C54.0642 55.8322 54.0642 55.9266 54.0642 56.021Z" fill="#F48138"/>
<path d="M67.0983 62.1931C66.9852 62.1365 67.004 62.0421 67.0606 61.91C67.1738 61.9666 67.1738 62.061 67.0983 62.1931Z" fill="#F9B63B"/>
<path d="M53.1044 65.7038C53.2176 65.6661 53.3119 65.6095 53.2176 65.4773C53.161 65.3641 53.1987 65.2697 53.3119 65.1942C53.5949 65.2886 53.6703 65.7416 54.0476 65.6472C54.1231 65.9115 54.3117 66.0247 54.5381 66.1191C54.5569 66.2323 54.5569 66.3645 54.5569 66.4588C54.689 66.6098 54.8776 66.44 55.0096 66.5343C55.2171 66.7231 55.2171 67.0251 55.236 67.3271C55.2737 67.8745 55.1606 68.4596 55.3681 68.9503C55.1417 69.2146 55.5567 69.5732 55.1417 69.8186C55.0096 69.8375 54.8965 69.8752 54.7644 69.8941C54.4815 69.8941 54.3494 69.5543 54.0665 69.5732C53.859 69.2335 53.6326 68.9126 53.4251 68.5728C53.2742 68.3275 53.161 68.0443 53.1987 67.6857C53.1233 67.4215 53.3496 67.195 53.444 66.9685C53.3308 66.8363 53.2176 66.9118 53.1233 66.9118C53.0667 66.5343 53.0667 66.1191 53.1044 65.7038ZM54.274 68.8748C54.3494 68.6861 54.3683 68.554 54.2551 68.4218C54.1796 68.6106 54.1608 68.7616 54.274 68.8748ZM53.6703 65.987C53.5571 66.138 53.444 66.2135 53.576 66.3267C53.6703 66.3078 53.7269 66.2323 53.6703 65.987Z" fill="#E1DFDE"/>
<path d="M52.8213 67.0062C52.7836 67.2705 52.9345 67.4592 52.9722 67.6857C52.9156 67.8556 52.8968 68.0444 52.7081 68.1954C52.7647 67.7801 52.5572 67.4404 52.8213 67.0062Z" fill="#F26C37"/>
<path d="M53.1418 66.9307C53.2361 66.9118 53.3493 66.8552 53.4625 66.9873C53.3682 67.195 53.1418 67.4215 53.2173 67.7046C53.0475 67.497 53.1041 67.2138 53.1418 66.9307Z" fill="#E0D9D5"/>
<path d="M53.1406 73.7824C53.1784 73.7635 53.2161 73.7068 53.2538 73.7068C53.3104 73.7068 53.3104 73.7635 53.2538 73.8012C53.2161 73.8201 53.1784 73.7824 53.1406 73.7824Z" fill="#F26C37"/>
<path d="M57.4428 69.5543C57.688 69.6864 57.9521 69.5732 58.2162 69.5166C58.8387 69.4033 59.4801 69.0636 60.1026 69.1391C59.9705 69.1957 59.8385 69.2523 59.7064 69.3089C59.4046 69.3844 59.0839 69.4599 58.7821 69.5354C57.8955 69.7431 57.0089 69.9696 56.1035 70.1961C56.0846 70.1583 56.0657 70.1394 56.0469 70.1017C56.4996 69.8563 56.9523 69.6109 57.4428 69.5543Z" fill="#E0D9D5"/>
<path d="M56.1032 70.1961C56.9898 69.9696 57.8953 69.762 58.7819 69.5355C59.178 70.5925 59.2535 71.7627 59.2346 72.9707C59.2346 73.1595 59.1214 73.2538 58.9894 73.3105C58.3669 73.0273 57.7444 72.782 57.1785 72.4045C57.0653 72.329 56.971 72.2723 56.8201 72.3101C56.1598 71.6683 55.4996 70.9888 55.0469 70.1206L55.1035 70.1017L55.1601 70.064C55.2921 70.1017 55.4241 70.1395 55.5562 70.1772C55.726 70.4037 55.9146 70.2338 56.1032 70.1961Z" fill="#E7413E"/>
<path d="M55.1592 70.0828L55.1026 70.1206L55.046 70.1395C55.0083 70.0073 54.8196 70.0828 54.8008 69.913C54.9328 69.8941 55.046 69.8563 55.1781 69.8375C55.1592 69.913 55.1592 69.9885 55.1592 70.0828Z" fill="#E0D9D5"/>
<path d="M61.875 71.5173C61.9505 71.4984 62.0448 71.4796 62.1014 71.5551C62.1202 71.6306 62.1014 71.6872 62.0259 71.7438C61.875 71.7627 61.8939 71.6117 61.875 71.5173Z" fill="#F58C4E"/>
<path d="M59.1189 73.5747C59.0812 73.7823 59.2132 74.0088 59.0058 74.2164C59.0246 74.0088 58.8926 73.7823 59.1189 73.5747Z" fill="#F37E4F"/>
<path d="M55.7431 57.3422C55.8374 57.38 55.8752 57.4744 55.8752 57.5876C55.8563 58.0029 55.8563 58.4181 55.8375 58.8145C55.4602 58.4747 55.7997 57.7764 55.3281 57.5687C55.479 57.3611 55.6111 57.3988 55.7431 57.3422Z" fill="#EEEBE9"/>
<path d="M53.3112 64.8922C53.2923 64.3637 53.2923 63.8163 53.2734 63.2312C53.9714 63.4388 54.7448 63.2501 55.1787 63.9485C55.3862 63.9296 55.5559 63.8918 55.7257 63.873C55.8955 64.0051 56.0653 64.1372 56.2539 64.2693C56.2539 64.6091 56.2728 64.93 56.2728 65.2508C55.7634 65.2697 55.2918 65.2508 54.8014 65.1376C54.3109 65.0432 53.8016 64.9677 53.3112 64.8922Z" fill="#BCBCBC"/>
<path d="M53.3125 64.8922C53.803 64.9677 54.3123 65.0432 54.8027 65.1376C55.2743 65.232 55.7648 65.2697 56.2741 65.2508C56.2741 65.4018 56.2741 65.5528 56.293 65.7038C55.5761 65.5906 54.8405 65.5151 54.0859 65.6472C53.7086 65.7416 53.6332 65.2886 53.3502 65.1942C53.3314 65.081 53.3125 64.9866 53.3125 64.8922Z" fill="#9F9F9F"/>
<path d="M54.0625 65.6472C54.8359 65.5151 55.5527 65.5906 56.2695 65.7038C56.2884 65.8548 56.2884 66.0058 56.3073 66.1568C56.0809 66.2135 55.8545 66.2701 55.6282 66.3267C55.2698 66.2512 54.9114 66.1946 54.553 66.1191C54.3266 66.0247 54.138 65.9115 54.0625 65.6472Z" fill="#8F8F8F"/>
<path d="M54.5547 66.1191C54.9131 66.1946 55.2715 66.2512 55.6299 66.3267C55.6299 66.6665 55.894 66.6476 56.0826 66.6665C56.5542 66.7042 57.0258 66.6287 57.5163 66.4777C57.4408 66.7231 57.2522 66.6853 57.1013 66.7231C56.8749 66.7797 56.6674 66.8741 56.5165 67.1383C56.8183 67.1761 57.139 66.9496 57.4785 67.0251C57.554 67.8367 57.5917 68.6861 57.422 69.5732C56.9504 69.6298 56.4788 69.8752 56.0261 70.1206C55.8751 70.1395 55.7054 70.1772 55.5545 70.215C55.4224 70.1772 55.2904 70.1395 55.1583 70.1017C55.1583 70.0262 55.1583 69.9318 55.1583 69.8563C55.5545 69.611 55.1583 69.2523 55.3847 68.9881C55.1772 68.4973 55.2904 67.9122 55.2526 67.3648C55.2338 67.0628 55.2338 66.7608 55.0263 66.5721C54.8942 66.4777 54.7056 66.6476 54.5736 66.4966C54.5736 66.3645 54.5547 66.2512 54.5547 66.1191Z" fill="#E5E4E1"/>
<path d="M57.5156 66.4777C57.8174 66.1002 58.157 66.2323 58.4777 66.1379C58.157 66.3644 57.8363 66.3644 57.5156 66.4777Z" fill="#E5E4E1"/>
<path d="M54.271 68.8748C54.1578 68.7616 54.1578 68.6106 54.2521 68.4218C54.3653 68.5539 54.3465 68.7049 54.271 68.8748Z" fill="#E0D9D5"/>
<path d="M53.6694 65.9869C53.726 66.2512 53.6883 66.3078 53.5751 66.3267C53.443 66.1946 53.5562 66.1379 53.6694 65.9869Z" fill="#E0D9D5"/>
<path d="M55.5742 70.1961C55.7251 70.1583 55.8949 70.1394 56.0458 70.1017C56.0647 70.1206 56.0835 70.1583 56.1024 70.1961C55.9138 70.2338 55.7251 70.4037 55.5742 70.1961Z" fill="#EF5F57"/>
<path d="M46.3893 87.9952L45.0123 88.3538L44.918 84.258L45.3141 84.1447L45.4084 87.8253L46.3705 87.58L46.3893 87.9952Z" fill="black"/>
<path d="M47.2209 87.7687L46.8248 87.882L46.7305 83.7861L47.1266 83.6917L47.2209 87.7687Z" fill="black"/>
<path d="M51.1807 86.8627L48.3134 84.3712L48.3889 87.4856L47.9928 87.5988L47.8984 83.3897L50.7657 85.8812L50.6903 82.7857L51.0864 82.6913L51.1807 86.8627Z" fill="black"/>
<path d="M55.2737 83.6162C55.2925 84.2769 55.1416 84.8242 54.8398 85.2961C54.538 85.768 54.123 86.07 53.5759 86.2021C53.0478 86.3342 52.6139 86.2587 52.2555 85.9378C51.8971 85.6359 51.7273 85.164 51.7084 84.56C51.6896 83.956 51.8594 83.4086 52.1989 82.9179C52.5384 82.4271 52.9534 82.1062 53.4816 81.9741C53.8212 81.8986 54.1041 81.8797 54.3682 81.9552C54.6323 82.0307 54.8398 82.1817 55.0096 82.4082L54.7078 82.748C54.5757 82.5592 54.4059 82.446 54.1984 82.3705C53.9909 82.3139 53.7646 82.3139 53.5194 82.3705C53.1044 82.4837 52.7648 82.7291 52.5196 83.1255C52.2555 83.5219 52.1423 83.956 52.1423 84.4656C52.1612 84.9375 52.2932 85.2961 52.5762 85.5415C52.8591 85.7869 53.1987 85.8623 53.5948 85.768C53.9532 85.6736 54.255 85.4849 54.4814 85.164C54.7266 84.862 54.8587 84.5034 54.8587 84.1259L53.7457 84.409V83.9937L55.2737 83.6162Z" fill="black"/>
<path d="M59.3497 82.597C59.3686 83.1821 59.1988 83.7295 58.8404 84.2391C58.482 84.7299 58.0481 85.0507 57.5199 85.2017C56.9917 85.3339 56.539 85.2584 56.1806 84.9375C55.8033 84.6166 55.6147 84.1636 55.6147 83.5785C55.5958 82.9745 55.7656 82.4271 56.124 81.9364C56.4824 81.4456 56.9163 81.1247 57.4445 80.9926C57.9727 80.8605 58.4254 80.936 58.7838 81.2569C59.1422 81.54 59.3308 81.993 59.3497 82.597ZM58.9536 82.6914C58.9536 82.2195 58.8027 81.8609 58.5008 81.5966C58.2179 81.3512 57.8595 81.2757 57.4445 81.3701C57.0106 81.4834 56.6522 81.7476 56.3881 82.144C56.124 82.5404 55.992 82.9745 56.0108 83.4464C56.0297 83.9182 56.1617 84.2769 56.4636 84.5411C56.7465 84.7865 57.1049 84.862 57.5199 84.7487C57.9349 84.6355 58.2745 84.3901 58.5574 83.9937C58.8215 83.5974 58.9724 83.1632 58.9536 82.6914Z" fill="black"/>
<path d="M61.4064 80.4264L60.5575 80.634L60.633 84.2769L60.2368 84.3712L60.1614 80.7284L59.3125 80.936V80.5207L61.3875 79.9922L61.4064 80.4264Z" fill="black" stroke="black" stroke-width="0.1" stroke-miterlimit="10"/>
<path d="M64.7439 83.2199L64.31 83.3331L63.8196 82.2195L62.3482 82.597L61.9143 83.9371L61.4805 84.0504L63.0462 79.4637L64.7439 83.2199ZM63.6875 81.8797L63.065 80.4641L62.4991 82.1817L63.6875 81.8797Z" fill="black" stroke="black" stroke-width="0.1" stroke-miterlimit="10"/>
<path d="M66.7624 82.7103L65.4231 83.05L65.3477 79.0108L65.7438 78.9164L65.8004 82.5404L66.7436 82.295L66.7624 82.7103Z" fill="black" stroke="black" stroke-width="0.1" stroke-miterlimit="10"/>
<path d="M69.893 81.8986L69.4026 82.0307L67.8369 80.332L67.8746 82.4271L67.4785 82.5215L67.4219 78.4822L67.818 78.3879L67.8557 80.2754L69.3271 77.9915L69.7987 77.8782L68.2896 80.181L69.893 81.8986Z" fill="black" stroke="black" stroke-width="0.1" stroke-miterlimit="10"/>
<path d="M32.709 32.465L26.8047 29.7092L26.8236 30.2566L32.7279 33.1256L32.709 32.465Z" fill="#E9E8E9"/>
<path d="M30.4296 52.0761L29.2978 51.5099L28.8828 38.1841L29.9958 38.7693L30.4296 52.0761Z" fill="#F26322"/>
<path d="M28.8828 38.1842L29.4299 38.1653L30.4296 38.6372L30.788 51.944L30.4296 52.0762L29.9958 38.7693L28.8828 38.1842Z" fill="#EE2C36"/>
<path d="M159.606 96.2247H186.751C187.072 96.2247 187.355 96.5834 187.506 97.1307L188.43 100.566C188.751 101.755 188.336 103.19 187.675 103.19H159.135C158.569 103.19 158.154 102.076 158.305 100.943L158.776 97.5082C158.871 96.7532 159.21 96.2247 159.606 96.2247Z" fill="#D5BFB5"/>
<path d="M175.035 34.8243H213.498L207.424 95.583L179.581 94.7902L175.035 34.8243Z" fill="#EE2C36"/>
<path d="M126.574 126.368C125.027 125.311 121.933 124.594 118.311 124.594C114.69 124.594 111.577 125.33 110.049 126.368H109.012V127.821C109.012 129.615 113.181 131.049 118.311 131.049C123.461 131.049 127.611 129.596 127.611 127.821V126.368H126.574Z" fill="#FFC817"/>
<path d="M118.311 129.596C123.448 129.596 127.611 128.151 127.611 126.368C127.611 124.586 123.448 123.141 118.311 123.141C113.175 123.141 109.012 124.586 109.012 126.368C109.012 128.151 113.175 129.596 118.311 129.596Z" fill="#F8EE5C"/>
<path d="M127.992 124.235C126.445 123.178 123.351 122.461 119.729 122.461C116.108 122.461 112.995 123.197 111.467 124.235H110.43V125.689C110.43 127.482 114.599 128.916 119.729 128.916C124.86 128.916 129.029 127.463 129.029 125.689V124.235H127.992Z" fill="#FFC817"/>
<path d="M119.71 127.463C124.846 127.463 129.01 126.018 129.01 124.235C129.01 122.453 124.846 121.008 119.71 121.008C114.574 121.008 110.41 122.453 110.41 124.235C110.41 126.018 114.574 127.463 119.71 127.463Z" fill="#F8EE5C"/>
<path d="M126.574 122.102C125.027 121.045 121.933 120.328 118.311 120.328C114.69 120.328 111.577 121.064 110.049 122.102H109.012V123.556C109.012 125.349 113.181 126.783 118.311 126.783C123.461 126.783 127.611 125.33 127.611 123.556V122.102H126.574Z" fill="#FFC817"/>
<path d="M118.311 125.33C123.448 125.33 127.611 123.885 127.611 122.102C127.611 120.32 123.448 118.875 118.311 118.875C113.175 118.875 109.012 120.32 109.012 122.102C109.012 123.885 113.175 125.33 118.311 125.33Z" fill="#F8EE5C"/>
<path d="M125.519 120.272C123.972 119.215 120.879 118.497 117.257 118.497C113.635 118.497 110.522 119.233 108.995 120.272H107.957V121.725C107.957 123.518 112.126 124.953 117.257 124.953C122.407 124.953 126.557 123.499 126.557 121.725V120.272H125.519Z" fill="#FFC817"/>
<path d="M117.257 123.499C122.393 123.499 126.557 122.054 126.557 120.272C126.557 118.489 122.393 117.044 117.257 117.044C112.121 117.044 107.957 118.489 107.957 120.272C107.957 122.054 112.121 123.499 117.257 123.499Z" fill="#F8EE5C"/>
<path d="M127.992 118.818C126.445 117.761 123.351 117.044 119.729 117.044C116.108 117.044 112.995 117.78 111.467 118.818H110.43V120.272C110.43 122.065 114.599 123.499 119.729 123.499C124.879 123.499 129.029 122.046 129.029 120.272V118.818H127.992Z" fill="#FFC817"/>
<path d="M119.71 122.046C124.846 122.046 129.01 120.601 129.01 118.818C129.01 117.036 124.846 115.591 119.71 115.591C114.574 115.591 110.41 117.036 110.41 118.818C110.41 120.601 114.574 122.046 119.71 122.046Z" fill="#F8EE5C"/>
<path d="M126.574 116.761C125.027 115.704 121.933 114.987 118.311 114.987C114.69 114.987 111.577 115.723 110.049 116.761H109.012V118.214C109.012 120.007 113.181 121.442 118.311 121.442C123.461 121.442 127.611 119.988 127.611 118.214V116.761H126.574Z" fill="#FFC817"/>
<path d="M118.311 119.988C123.448 119.988 127.611 118.543 127.611 116.761C127.611 114.978 123.448 113.533 118.311 113.533C113.175 113.533 109.012 114.978 109.012 116.761C109.012 118.543 113.175 119.988 118.311 119.988Z" fill="#F8EE5C"/>
<path d="M108.278 119.743C106.467 120.177 103.845 121.989 101.412 124.688C98.9783 127.387 97.4315 130.162 97.1862 132.012L96.4883 132.786L97.5635 133.767C98.884 134.956 102.751 132.842 106.203 129.029C109.655 125.217 111.372 121.14 110.051 119.951L108.976 118.969L108.278 119.743Z" fill="#FFC817"/>
<path d="M105.119 128.054C108.563 124.241 110.283 120.182 108.962 118.986C107.64 117.791 103.777 119.913 100.333 123.726C96.8894 127.539 95.1691 131.599 96.4908 132.794C97.8125 133.989 101.676 131.867 105.119 128.054Z" fill="#F8EE5C"/>
<path d="M48.7422 132.446V125.349L108.785 136.655L117.802 127.01V134.031L108.634 145.13L48.7422 132.446Z" fill="#4E8E5A"/>
<path d="M44.4805 123.159V115.477L101.675 105.945L114.257 114.986V122.801L53.3652 134.031L44.4805 123.159Z" fill="#6BAC7A"/>
<path d="M117.804 127.01L96.8656 123.82L74.3047 130.162L108.787 136.655L117.804 127.01Z" fill="#6BAC7A"/>
<path d="M71.1523 137.183L71.6051 130.672L74.3026 130.162L86.3753 127.935L81.848 131.597L81.2255 139.316L71.1523 137.183Z" fill="#8A96C1"/>
<path d="M79.3593 131.125L82.6227 128.633L86.3765 127.935L81.8493 131.597L81.2268 139.316L79.2461 138.75L79.3593 131.125Z" fill="#5162A4"/>
<path d="M71.2655 129.483L74.5101 126.991L78.2639 126.312L73.7367 129.954L73.1142 137.618L71.1523 137.184L71.2655 129.483Z" fill="#5162A4"/>
<path opacity="0.22" d="M108.785 136.655L108.634 145.13L48.7422 132.446V125.349L108.785 136.655Z" fill="black"/>
<path d="M44.4805 115.477L54.7046 127.142L114.257 114.987V122.801L53.3652 134.031L44.4805 123.159V115.477Z" fill="#4E8E5A"/>
<path d="M47.0469 112.91C47.0469 112.91 48.556 121.291 54.7244 127.123L114.258 114.968L101.676 105.945C101.676 105.945 56.1769 114.477 47.0469 112.91Z" fill="#8FCEA0"/>
<path d="M69.6836 111.211L82.1525 121.536V128.727L92.7538 126.764V119.365L80.6434 109.456L69.6836 111.211Z" fill="#8A96C1"/>
<path d="M69.6836 111.212L71.7775 110.872L84.5481 120.951V128.275L82.1525 128.728V121.536L69.6836 111.212Z" fill="#5162A4"/>
<path d="M79.2461 109.683L91.4131 119.649V127.01L92.7525 126.764V119.365L80.642 109.456L79.2461 109.683Z" fill="#5162A4"/>
<path opacity="0.12" d="M67.0611 111.551C67.0611 111.551 65.005 116.478 68.1363 116.383C71.2677 116.27 75.5309 113.873 78.2473 113.061C80.9636 112.25 85.2268 113.816 89.7163 113.967C94.2059 114.099 98.4691 112.212 98.7143 110.589C98.9595 108.965 94.2247 107.361 94.2247 107.361L67.0611 111.551Z" fill="black"/>
<path opacity="0.12" d="M54.7065 127.142L53.3672 134.031L114.259 122.801V114.987L54.7065 127.142Z" fill="black"/>
<path d="M97.148 107.512C95.6012 106.455 92.5075 105.738 88.8857 105.738C85.2639 105.738 82.1514 106.474 80.6234 107.512H79.5859V108.965C79.5859 110.758 83.7548 112.193 88.8857 112.193C94.0355 112.193 98.1855 110.74 98.1855 108.965V107.512H97.148Z" fill="#FFC817"/>
<path d="M88.8857 110.74C94.0218 110.74 98.1855 109.295 98.1855 107.512C98.1855 105.729 94.0218 104.284 88.8857 104.284C83.7496 104.284 79.5859 105.729 79.5859 107.512C79.5859 109.295 83.7496 110.74 88.8857 110.74Z" fill="#F8EE5C"/>
<path d="M98.5425 105.379C96.9957 104.322 93.9021 103.605 90.2802 103.605C86.6584 103.605 83.5459 104.341 82.018 105.379H80.9805V106.832C80.9805 108.626 85.1493 110.06 90.2802 110.06C95.43 110.06 99.58 108.607 99.58 106.832V105.379H98.5425Z" fill="#FFC817"/>
<path d="M90.2802 108.607C95.4164 108.607 99.58 107.162 99.58 105.379C99.58 103.597 95.4164 102.151 90.2802 102.151C85.1441 102.151 80.9805 103.597 80.9805 105.379C80.9805 107.162 85.1441 108.607 90.2802 108.607Z" fill="#F8EE5C"/>
<path d="M97.148 103.246C95.6012 102.189 92.5075 101.472 88.8857 101.472C85.2639 101.472 82.1514 102.208 80.6234 103.246H79.5859V104.7C79.5859 106.493 83.7548 107.927 88.8857 107.927C94.0355 107.927 98.1855 106.474 98.1855 104.7V103.246H97.148Z" fill="#FFC817"/>
<path d="M88.8857 106.474C94.0218 106.474 98.1855 105.029 98.1855 103.246C98.1855 101.464 94.0218 100.019 88.8857 100.019C83.7496 100.019 79.5859 101.464 79.5859 103.246C79.5859 105.029 83.7496 106.474 88.8857 106.474Z" fill="#F8EE5C"/>
<path d="M96.0894 101.415C94.5426 100.358 91.4489 99.6411 87.8271 99.6411C84.2053 99.6411 81.0928 100.377 79.5648 101.415H78.5273V102.869C78.5273 104.662 82.6962 106.096 87.8271 106.096C92.9769 106.096 97.1269 104.643 97.1269 102.869V101.415H96.0894Z" fill="#FFC817"/>
<path d="M87.8271 104.643C92.9632 104.643 97.1269 103.198 97.1269 101.415C97.1269 99.6328 92.9632 98.1877 87.8271 98.1877C82.691 98.1877 78.5273 99.6328 78.5273 101.415C78.5273 103.198 82.691 104.643 87.8271 104.643Z" fill="#F8EE5C"/>
<path d="M98.5425 99.962C96.9957 98.905 93.9021 98.1877 90.2802 98.1877C86.6584 98.1877 83.5459 98.9239 82.018 99.962H80.9805V101.415C80.9805 103.208 85.1493 104.643 90.2802 104.643C95.43 104.643 99.58 103.19 99.58 101.415V99.962H98.5425Z" fill="#FFC817"/>
<path d="M90.2802 103.19C95.4164 103.19 99.58 101.745 99.58 99.962C99.58 98.1794 95.4164 96.7344 90.2802 96.7344C85.1441 96.7344 80.9805 98.1794 80.9805 99.962C80.9805 101.745 85.1441 103.19 90.2802 103.19Z" fill="#F8EE5C"/>
<path d="M97.148 97.9046C95.6012 96.8476 92.5075 96.1304 88.8857 96.1304C85.2639 96.1304 82.1514 96.8665 80.6234 97.9046H79.5859V99.358C79.5859 101.151 83.7548 102.586 88.8857 102.586C94.0355 102.586 98.1855 101.132 98.1855 99.358V97.9046H97.148Z" fill="#FFC817"/>
<path d="M88.8857 101.132C94.0218 101.132 98.1855 99.6872 98.1855 97.9046C98.1855 96.1221 94.0218 94.677 88.8857 94.677C83.7496 94.677 79.5859 96.1221 79.5859 97.9046C79.5859 99.6872 83.7496 101.132 88.8857 101.132Z" fill="#F8EE5C"/>
<path d="M78.8484 100.887C77.0374 101.321 74.4154 103.133 71.982 105.832C69.5486 108.531 68.0018 111.306 67.7565 113.156L67.0586 113.929L68.1338 114.911C69.4543 116.1 73.3213 113.986 76.7734 110.173C80.2254 106.361 81.942 102.284 80.6215 101.094L79.5463 100.113L78.8484 100.887Z" fill="#FFC817"/>
<path d="M75.6936 109.191C79.1374 105.379 80.8577 101.319 79.536 100.124C78.2143 98.9284 74.3511 101.05 70.9074 104.863C67.4636 108.676 65.7433 112.736 67.065 113.931C68.3867 115.126 72.2499 113.004 75.6936 109.191Z" fill="#F8EE5C"/>
<path d="M195.258 34.6733C195.258 34.6733 187.146 48.8862 188.957 60.7775C190.768 72.6687 183.449 94.6203 183.449 94.6203L187.882 94.3183C187.882 94.3183 199.389 77.6328 198.012 66.2323C196.635 54.8318 190.995 53.2275 198.125 34.6733H195.258Z" fill="#F8FAFB"/>
<path d="M137.857 84.0504H124.143C123.106 84.0504 122.238 83.201 122.238 82.144C122.238 81.1059 123.087 80.2376 124.143 80.2376H137.857C138.895 80.2376 139.763 81.087 139.763 82.144C139.763 83.201 138.914 84.0504 137.857 84.0504Z" fill="#F15C32"/>
<path d="M137.857 91.2983H124.143C123.106 91.2983 122.238 90.449 122.238 89.392C122.238 88.3538 123.087 87.4856 124.143 87.4856H137.857C138.895 87.4856 139.763 88.335 139.763 89.392C139.763 90.449 138.914 91.2983 137.857 91.2983Z" fill="#F15C32"/>
<path d="M213.95 34.6734H174.581C173.431 34.6734 172.469 33.7296 172.469 32.5594C172.469 31.408 173.412 30.4454 174.581 30.4454H213.95C215.101 30.4454 216.063 31.3891 216.063 32.5594C216.063 33.7296 215.119 34.6734 213.95 34.6734Z" fill="#DCDCDC"/>
<path d="M192.898 30.4454V18.4031C192.898 17.8557 192.445 17.4027 191.898 17.4027H172.469V14.0241H194.558C195.558 14.0241 196.369 14.8357 196.369 15.8361V30.4642H192.898V30.4454Z" fill="#465B65"/>
<path d="M117.427 27.633C106.316 27.633 97.2992 35.3717 97.2992 44.9225C97.2992 46.8289 97.6765 48.6597 98.3367 50.3774C97.1672 51.5476 94.6394 53.5672 91.0742 53.8504C91.0742 53.8504 96.2617 56.0587 100.94 54.7941C104.581 59.2675 110.598 62.1931 117.427 62.1931C128.537 62.1931 137.554 54.4544 137.554 44.9036C137.535 35.3717 128.537 27.633 117.427 27.633Z" fill="#FEDCBC"/>
<path d="M122.71 40.3548C120.974 39.109 118.39 39.562 117.503 41.2608C116.598 39.5809 114.013 39.1279 112.297 40.3548C110.826 41.4118 110.128 43.2238 110.599 44.7338C111.222 46.6968 112.863 48.4333 114.523 49.9433C115.183 50.5473 115.881 51.1324 116.617 51.6986C116.73 51.793 117.503 52.2271 117.503 52.3593C117.503 52.2271 118.277 51.793 118.39 51.6986C119.126 51.1324 119.823 50.5473 120.484 49.9433C122.144 48.4333 123.785 46.6968 124.407 44.7338C124.898 43.2426 124.2 41.4118 122.71 40.3548Z" fill="#F37221"/>
<path d="M203.876 151C204.008 150.924 204.121 150.849 204.216 150.773C206.253 149.112 208.498 148.414 210.893 147.584C213.534 146.678 215.873 144.847 218.476 143.733C219.589 143.261 220.759 142.846 221.778 142.166C222.608 141.619 223.306 140.902 224.022 140.203C226.682 137.542 229.342 134.881 232.002 132.238C232.7 131.521 233.416 130.804 233.869 129.898C234.303 129.011 234.454 127.991 234.699 127.029C235.058 125.707 235.642 124.462 235.982 123.159C236.548 121.008 236.416 118.743 236.303 116.515C236.246 115.666 236.189 114.779 236.057 113.929C236.038 113.892 236.038 113.873 236.038 113.835C235.85 112.589 235.491 111.4 234.756 110.381C234.699 110.287 234.624 110.211 234.548 110.117C233.322 108.512 231.681 107.436 230.606 105.643C229.342 103.529 227.889 101.849 225.909 100.339C223.834 98.7729 222.155 96.6022 219.835 95.3942C219.061 94.9979 218.307 94.6204 217.514 94.2806H217.496C215.986 93.6011 214.44 93.016 212.893 92.4875C212.874 92.4686 212.874 92.4686 212.855 92.4686C211.761 92.0722 210.648 91.7136 209.535 91.3739C209.516 91.355 209.497 91.355 209.497 91.355C208.007 90.9209 206.498 90.4867 204.989 90.0526C200.801 88.8446 196.972 86.9949 192.539 86.9005C186.616 86.7872 188.729 87.9009 183.862 87.9009C180.315 87.9009 178.127 87.0892 176.014 87.127C175.807 87.127 175.599 87.1459 175.392 87.1647C175.392 87.1836 175.392 87.1836 175.373 87.1647C174.807 87.2402 174.222 87.3724 173.6 87.6177C173.392 87.7121 173.147 87.7876 172.94 87.8631C172.921 87.882 172.921 87.882 172.902 87.882C172.204 88.1274 171.487 88.3727 170.77 88.5804C170.733 88.5992 170.695 88.5992 170.657 88.6181C169.657 88.9012 168.639 89.1466 167.62 89.392C167.582 89.392 167.564 89.4109 167.526 89.4109C167.262 89.4675 166.96 89.543 166.677 89.5996H166.658C165.753 89.8072 164.866 89.996 163.961 90.1847C163.206 90.3357 162.508 90.5622 161.848 90.8076C161.508 90.9209 161.188 91.053 160.867 91.204C160.546 91.355 160.226 91.4871 159.924 91.6381C159.49 91.8269 159.075 92.0345 158.66 92.2421C157.83 92.6385 156.962 93.0349 156 93.3746C153.265 94.3372 150.775 95.7151 148.285 97.0741C147.002 97.7725 145.701 98.4709 144.38 99.1126C142.324 100.113 140.796 102.812 139.796 104.813C139.419 105.549 138.664 106.474 137.834 107.436C136.401 109.135 134.741 110.966 134.628 112.099C134.458 113.854 132.402 118.61 132.59 122.197C132.76 125.764 133.401 127.821 135.571 131.106C137.74 134.409 142.796 138.108 143.211 140.562C143.607 143.035 150.247 144.79 151.36 145.79C152.812 147.093 155.415 147.64 157.207 148.225C159.735 149.075 162.055 150 164.508 151H203.876Z" fill="#D5BFB5"/>
<path d="M150.415 95.1677C149.17 95.8472 147.907 96.5267 146.624 97.1496C144.624 98.1122 143.134 100.755 142.172 102.699C141.21 104.643 137.324 108.059 137.154 109.777C136.985 111.495 134.985 116.119 135.155 119.592C135.325 123.084 135.947 125.066 138.06 128.274C140.172 131.464 145.077 135.069 145.473 137.467C145.869 139.864 152.321 141.581 153.415 142.544C154.83 143.809 157.357 144.337 159.112 144.922C161.677 145.772 164.035 146.715 166.525 147.735C167.883 148.282 169.336 148.471 170.788 148.659C178.239 149.622 184.992 149.377 192.406 148.471C195.707 148.074 202.97 148.924 204.856 147.395C206.837 145.772 209.006 145.092 211.364 144.28C213.91 143.393 216.212 141.619 218.74 140.543C219.834 140.071 220.965 139.675 221.946 139.014C222.757 138.486 223.455 137.787 224.135 137.108C226.719 134.522 229.303 131.936 231.887 129.35C232.585 128.671 233.283 127.954 233.717 127.085C234.151 126.217 234.283 125.236 234.528 124.292C234.868 123.008 235.434 121.8 235.773 120.536C236.32 118.441 236.207 116.232 236.075 114.08C235.962 112.004 235.792 109.796 234.585 108.116C233.359 106.417 231.642 105.36 230.548 103.529C229.303 101.453 227.907 99.8298 225.964 98.3576C223.965 96.8287 222.324 94.7336 220.06 93.5445C215.476 91.1662 210.553 89.7506 205.61 88.335C201.536 87.1647 197.82 85.3716 193.5 85.2772C187.728 85.164 189.784 86.2398 185.049 86.2398C180.314 86.2398 178.088 84.7487 175.051 85.9567C172.033 87.1458 168.845 87.7876 165.695 88.4671C162.733 89.09 160.734 90.5811 157.942 91.5815C155.282 92.5252 152.849 93.8465 150.415 95.1677Z" fill="#F7942C"/>
<path d="M151.097 91.2795C149.871 91.959 148.664 92.6385 147.4 93.2613C145.457 94.224 144.004 96.8665 143.061 98.8106C142.118 100.755 138.326 104.171 138.157 105.889C137.987 107.606 136.044 112.231 136.214 115.704C136.383 119.196 136.987 121.177 139.043 124.386C141.099 127.576 145.891 131.181 146.268 133.578C146.664 135.975 152.946 137.693 154.002 138.656C155.379 139.92 157.85 140.449 159.548 141.034C162.057 141.883 164.339 142.827 166.773 143.846C168.093 144.394 169.508 144.582 170.923 144.771C178.185 145.734 184.769 145.488 191.993 144.582C195.219 144.186 202.293 145.035 204.123 143.507C206.047 141.883 208.16 141.204 210.461 140.392C212.951 139.505 215.177 137.731 217.648 136.655C218.704 136.183 219.817 135.787 220.779 135.126C221.572 134.598 222.251 133.899 222.911 133.22C225.439 130.634 227.947 128.048 230.475 125.462C231.154 124.783 231.833 124.065 232.248 123.197C232.663 122.329 232.795 121.347 233.041 120.404C233.38 119.12 233.927 117.912 234.248 116.647C234.776 114.552 234.663 112.344 234.55 110.192C234.437 108.116 234.286 105.908 233.097 104.228C231.89 102.529 230.23 101.472 229.155 99.6411C227.948 97.5648 226.57 95.9416 224.684 94.4693C222.722 92.9405 221.138 90.8453 218.931 89.6562C214.46 87.278 209.669 85.8623 204.858 84.4467C200.897 83.2765 197.275 81.4833 193.069 81.389C187.447 81.2757 189.447 82.3516 184.844 82.3516C180.222 82.3516 178.053 80.8605 175.11 82.0685C172.168 83.2576 169.055 83.8993 165.98 84.5788C163.094 85.2017 161.132 86.6928 158.416 87.6932C155.832 88.637 153.474 89.9582 151.097 91.2795Z" fill="#FBB778"/>
<path d="M155.717 93.8276C154.66 94.4316 153.585 95.0167 152.472 95.5641C150.775 96.4135 149.511 98.7162 148.681 100.415C147.851 102.114 144.55 105.115 144.399 106.606C144.248 108.097 142.55 112.155 142.701 115.194C142.852 118.233 143.38 119.988 145.191 122.782C146.983 125.575 151.171 128.727 151.51 130.823C151.85 132.918 157.339 134.409 158.263 135.258C159.471 136.372 161.621 136.825 163.111 137.334C165.3 138.089 167.299 138.901 169.431 139.788C170.581 140.279 171.826 140.449 173.052 140.6C179.391 141.449 185.163 141.223 191.463 140.43C194.293 140.071 200.461 140.826 202.065 139.486C203.744 138.071 205.611 137.467 207.611 136.768C209.78 135.994 211.742 134.447 213.892 133.503C214.817 133.088 215.779 132.748 216.627 132.163C217.325 131.691 217.91 131.087 218.495 130.483C220.702 128.218 222.909 125.972 225.097 123.707C225.682 123.103 226.286 122.48 226.644 121.725C227.002 120.97 227.135 120.102 227.342 119.271C227.644 118.157 228.115 117.1 228.398 115.987C228.87 114.156 228.757 112.231 228.662 110.343C228.568 108.531 228.436 106.606 227.399 105.115C226.342 103.624 224.89 102.699 223.947 101.094C222.89 99.2825 221.702 97.848 220.042 96.5645C218.325 95.2244 216.929 93.3935 215.005 92.3554C211.1 90.2791 206.894 89.0334 202.687 87.8065C199.216 86.7872 196.047 85.2206 192.369 85.1451C187.464 85.0507 189.2 85.9945 185.163 85.9945C181.126 85.9945 179.221 84.6921 176.655 85.7491C174.09 86.7872 171.374 87.3535 168.676 87.9386C166.148 88.486 164.451 89.7884 162.074 90.6566C159.848 91.506 157.792 92.6762 155.717 93.8276Z" fill="#F7942C"/>
<path d="M156.565 94.5826C155.546 95.1488 154.509 95.734 153.452 96.2625C151.811 97.0741 150.604 99.2825 149.812 100.925C149.019 102.548 145.832 105.436 145.699 106.87C145.567 108.305 143.926 112.193 144.058 115.137C144.19 118.063 144.719 119.743 146.435 122.442C148.171 125.122 152.189 128.161 152.509 130.181C152.83 132.2 158.131 133.635 159.017 134.447C160.187 135.522 162.243 135.957 163.677 136.447C165.789 137.165 167.713 137.957 169.751 138.807C170.864 139.279 172.052 139.43 173.24 139.581C179.333 140.392 184.879 140.185 190.953 139.43C193.67 139.09 199.612 139.807 201.159 138.524C202.781 137.165 204.554 136.579 206.478 135.9C208.572 135.164 210.439 133.654 212.514 132.748C213.401 132.351 214.325 132.012 215.137 131.464C215.797 131.011 216.363 130.426 216.929 129.86C219.041 127.689 221.173 125.519 223.286 123.348C223.852 122.763 224.417 122.178 224.776 121.442C225.134 120.706 225.247 119.875 225.455 119.082C225.738 118.006 226.209 116.987 226.474 115.911C226.926 114.156 226.813 112.287 226.719 110.475C226.624 108.72 226.492 106.87 225.493 105.455C224.493 104.02 223.078 103.133 222.173 101.585C221.154 99.8487 220.003 98.4708 218.419 97.244C216.778 95.9605 215.438 94.1862 213.59 93.2047C209.836 91.204 205.799 90.0148 201.743 88.8257C198.404 87.8442 195.367 86.3342 191.821 86.2587C187.105 86.1643 188.784 87.0703 184.898 87.0703C181.012 87.0703 179.201 85.8246 176.711 86.825C174.24 87.8253 171.637 88.3727 169.034 88.9201C166.6 89.4486 164.959 90.6944 162.677 91.5248C160.545 92.3554 158.564 93.469 156.565 94.5826Z" fill="#FEBE10"/>
<path d="M156.791 94.3183C155.773 94.8846 154.735 95.4697 153.679 95.9982C152.038 96.8098 150.831 99.0182 150.038 100.66C149.246 102.284 146.058 105.171 145.926 106.606C145.794 108.04 144.153 111.929 144.285 114.873C144.417 117.799 144.945 119.479 146.662 122.178C148.397 124.858 152.415 127.897 152.736 129.917C153.056 131.936 158.357 133.371 159.244 134.182C160.413 135.258 162.469 135.692 163.903 136.183C166.016 136.9 167.94 137.693 169.977 138.542C171.09 139.014 172.279 139.165 173.467 139.316C179.56 140.128 185.106 139.92 191.18 139.165C193.896 138.826 199.838 139.543 201.385 138.259C203.007 136.9 204.781 136.315 206.705 135.636C208.799 134.9 210.666 133.39 212.741 132.484C213.628 132.087 214.552 131.747 215.363 131.2C216.023 130.747 216.589 130.162 217.155 129.596C219.268 127.425 221.399 125.254 223.512 123.084C224.078 122.499 224.644 121.914 225.002 121.177C225.361 120.441 225.474 119.611 225.682 118.818C225.964 117.742 226.436 116.723 226.7 115.647C227.153 113.892 227.04 112.023 226.945 110.211C226.851 108.456 226.719 106.606 225.719 105.19C224.719 103.756 223.305 102.869 222.399 101.321C221.381 99.5844 220.23 98.2066 218.645 96.9797C217.004 95.6962 215.665 93.9219 213.816 92.9404C210.062 90.9397 206.026 89.7506 201.97 88.5614C198.631 87.5799 195.594 86.0699 192.048 85.9944C187.332 85.9001 189.011 86.8061 185.125 86.8061C181.239 86.8061 179.428 85.5603 176.938 86.5607C174.467 87.5611 171.864 88.1084 169.26 88.6558C166.827 89.1843 165.186 90.4301 162.903 91.2606C160.753 92.0911 158.772 93.2047 156.791 94.3183Z" fill="#FEBE10"/>
<path d="M183.504 97.093C187.098 97.093 190.012 95.4536 190.012 93.4312C190.012 91.4089 187.098 89.7695 183.504 89.7695C179.91 89.7695 176.996 91.4089 176.996 93.4312C176.996 95.4536 179.91 97.093 183.504 97.093Z" fill="#EE2C36"/>
<path d="M163.867 105.417C167.462 105.417 170.375 103.777 170.375 101.755C170.375 99.7327 167.462 98.0933 163.867 98.0933C160.273 98.0933 157.359 99.7327 157.359 101.755C157.359 103.777 160.273 105.417 163.867 105.417Z" fill="#EE2C36"/>
<path d="M155.301 120.498C158.895 120.498 161.809 118.859 161.809 116.836C161.809 114.814 158.895 113.174 155.301 113.174C151.707 113.174 148.793 114.814 148.793 116.836C148.793 118.859 151.707 120.498 155.301 120.498Z" fill="#EE2C36"/>
<path d="M170.375 131.691C173.969 131.691 176.883 130.051 176.883 128.029C176.883 126.007 173.969 124.367 170.375 124.367C166.781 124.367 163.867 126.007 163.867 128.029C163.867 130.051 166.781 131.691 170.375 131.691Z" fill="#EE2C36"/>
<path d="M193.445 130.313C197.04 130.313 199.953 128.674 199.953 126.651C199.953 124.629 197.04 122.99 193.445 122.99C189.851 122.99 186.938 124.629 186.938 126.651C186.938 128.674 189.851 130.313 193.445 130.313Z" fill="#EE2C36"/>
<path d="M212.949 120.951C216.544 120.951 219.457 119.312 219.457 117.289C219.457 115.267 216.544 113.627 212.949 113.627C209.355 113.627 206.441 115.267 206.441 117.289C206.441 119.312 209.355 120.951 212.949 120.951Z" fill="#EE2C36"/>
<path d="M206.461 101.755C210.055 101.755 212.969 100.116 212.969 98.0933C212.969 96.071 210.055 94.4316 206.461 94.4316C202.867 94.4316 199.953 96.071 199.953 98.0933C199.953 100.116 202.867 101.755 206.461 101.755Z" fill="#EE2C36"/>
<path d="M177.809 118.799C181.403 118.799 184.317 117.16 184.317 115.137C184.317 113.115 181.403 111.476 177.809 111.476C174.215 111.476 171.301 113.115 171.301 115.137C171.301 117.16 174.215 118.799 177.809 118.799Z" fill="#EE2C36"/>
<path d="M193.445 111.476C197.04 111.476 199.953 109.836 199.953 107.814C199.953 105.792 197.04 104.152 193.445 104.152C189.851 104.152 186.938 105.792 186.938 107.814C186.938 109.836 189.851 111.476 193.445 111.476Z" fill="#EE2C36"/>
<path d="M161.283 106.663C158.265 106.663 155.812 108.456 155.812 110.683C155.812 111.702 156.303 112.608 157.152 113.325C158.001 114.043 159.189 114.533 160.547 114.666C160.793 114.684 161.038 114.703 161.283 114.703C164.301 114.703 166.753 112.91 166.753 110.683C166.753 108.456 164.301 106.663 161.283 106.663ZM161.283 113.816C158.774 113.816 156.718 112.419 156.718 110.683C156.718 108.965 158.774 107.55 161.283 107.55C163.811 107.55 165.867 108.965 165.867 110.683C165.867 112.419 163.811 113.816 161.283 113.816Z" fill="#EAEAEA"/>
<path d="M180.844 98.5275C180.769 98.3765 180.675 98.2443 180.561 98.1122C179.618 96.9231 177.845 96.1115 175.845 96.1115C172.846 96.1115 170.375 97.9235 170.375 100.151C170.375 102.359 172.846 104.171 175.845 104.171C176.958 104.171 177.996 103.926 178.864 103.492C179.09 103.378 179.316 103.265 179.505 103.133C180.618 102.397 181.316 101.321 181.316 100.151C181.316 99.5656 181.146 99.0182 180.844 98.5275ZM175.845 103.284C173.337 103.284 171.28 101.868 171.28 100.151C171.28 98.4142 173.337 97.0175 175.845 97.0175C178.373 97.0175 180.429 98.4142 180.429 100.151C180.429 101.868 178.373 103.284 175.845 103.284Z" fill="#EAEAEA"/>
<path d="M187.256 106.7C187.049 106.681 186.841 106.663 186.615 106.663C183.597 106.663 181.145 108.456 181.145 110.683C181.145 111.193 181.277 111.683 181.522 112.136C181.993 113.061 182.918 113.816 184.106 114.25C184.861 114.533 185.71 114.703 186.615 114.703C189.294 114.703 191.557 113.269 191.991 111.381C192.048 111.155 192.085 110.928 192.085 110.683C192.085 108.626 189.954 106.927 187.256 106.7ZM186.615 113.816C184.087 113.816 182.031 112.419 182.031 110.683C182.031 108.965 184.087 107.55 186.615 107.55C186.728 107.55 186.841 107.55 186.955 107.569C189.312 107.682 191.18 109.041 191.18 110.683C191.18 110.872 191.161 111.042 191.105 111.23C190.727 112.703 188.86 113.816 186.615 113.816Z" fill="#EAEAEA"/>
<path d="M204.308 94.6581C203.309 93.6954 201.724 93.0726 199.951 93.0726H199.668C197.103 93.1669 194.99 94.5637 194.575 96.3946C194.499 96.6211 194.48 96.8476 194.48 97.0929C194.48 99.3202 196.933 101.113 199.951 101.113C200.705 101.113 201.403 101 202.064 100.792C204.026 100.207 205.421 98.7728 205.421 97.0929C205.421 96.1681 205.006 95.3376 204.308 94.6581ZM201.045 100.132C200.705 100.188 200.328 100.226 199.951 100.226C197.423 100.226 195.367 98.8106 195.367 97.0929C195.367 96.4889 195.612 95.9038 196.065 95.4319C196.461 94.9978 197.008 94.6392 197.668 94.3938C198.329 94.1107 199.121 93.9597 199.951 93.9597C201.271 93.9597 202.441 94.3372 203.271 94.9223C204.044 95.4886 204.516 96.2624 204.516 97.0929C204.516 98.5463 203.045 99.7921 201.045 100.132Z" fill="#EAEAEA"/>
<path d="M195.369 118.988C192.351 118.988 189.898 120.781 189.898 123.008C189.898 123.197 189.917 123.386 189.974 123.575C190.276 125.292 192.105 126.67 194.426 126.972C194.728 127.01 195.048 127.029 195.369 127.029C197.085 127.029 198.613 126.444 199.613 125.538C200.141 125.066 200.538 124.481 200.726 123.839C200.802 123.575 200.839 123.291 200.839 123.008C200.839 120.781 198.387 118.988 195.369 118.988ZM199.085 124.839C198.236 125.632 196.897 126.142 195.369 126.142C195.237 126.142 195.105 126.142 194.992 126.123C192.803 126.009 191.049 124.82 190.823 123.329C190.823 123.31 190.823 123.31 190.823 123.31C190.804 123.216 190.804 123.103 190.804 123.008C190.804 121.272 192.86 119.875 195.369 119.875C197.897 119.875 199.953 121.272 199.953 123.008C199.953 123.405 199.84 123.782 199.651 124.122C199.5 124.386 199.311 124.613 199.085 124.839Z" fill="#EAEAEA"/>
<path d="M181.314 127.652C181.201 127.652 181.107 127.652 180.994 127.67C178.428 127.765 176.296 129.218 175.919 131.068C175.863 131.276 175.844 131.483 175.844 131.691C175.844 133.899 178.315 135.711 181.314 135.711C184.332 135.711 186.785 133.899 186.785 131.691C186.785 129.464 184.332 127.652 181.314 127.652ZM181.314 134.824C178.805 134.824 176.749 133.408 176.749 131.691C176.749 131.03 177.032 130.445 177.523 129.935C177.56 129.917 177.579 129.898 177.598 129.879C177.919 129.558 178.315 129.294 178.768 129.105C178.786 129.105 178.805 129.086 178.805 129.086C179.522 128.746 180.39 128.558 181.314 128.558C183.842 128.558 185.898 129.954 185.898 131.691C185.898 133.408 183.842 134.824 181.314 134.824Z" fill="#EAEAEA"/>
<path d="M222.778 108.229C222.25 107.72 221.571 107.323 220.778 107.059C220.061 106.795 219.269 106.663 218.439 106.663C215.421 106.663 212.969 108.456 212.969 110.683C212.969 111.06 213.044 111.438 213.176 111.778C213.459 112.495 213.987 113.118 214.704 113.627C214.799 113.684 214.912 113.76 215.025 113.816C215.704 114.231 216.534 114.515 217.439 114.647C217.76 114.684 218.1 114.703 218.439 114.703C221.457 114.703 223.91 112.91 223.91 110.683C223.91 109.758 223.495 108.909 222.778 108.229ZM218.439 113.816C217.326 113.816 216.289 113.552 215.496 113.08C214.648 112.608 214.063 111.91 213.912 111.136C213.874 110.985 213.855 110.834 213.855 110.683C213.855 108.965 215.911 107.55 218.439 107.55C218.779 107.55 219.118 107.569 219.42 107.625C220.495 107.795 221.42 108.21 222.061 108.777C222.646 109.305 223.004 109.966 223.004 110.683C223.004 112.419 220.948 113.816 218.439 113.816Z" fill="#EAEAEA"/>
<path d="M170.375 111.06C170.375 111.06 173.223 106.644 179.845 104.171C179.845 104.171 181.976 104.586 182.014 105.115C182.052 105.643 171.771 111.589 171.28 112.721C170.79 113.873 170.375 111.06 170.375 111.06Z" fill="#6BAC7A"/>
<path d="M211.289 113.948C211.289 113.948 214.137 109.532 220.759 107.059C220.759 107.059 222.89 107.474 222.928 108.003C222.966 108.531 212.685 114.477 212.195 115.609C211.704 116.742 211.289 113.948 211.289 113.948Z" fill="#6BAC7A"/>
<path d="M189.898 97.5648C189.898 97.5648 192.747 93.1481 199.368 90.6755C199.368 90.6755 201.5 91.0907 201.537 91.6192C201.575 92.1477 191.294 98.0934 190.804 99.2259C190.313 100.377 189.898 97.5648 189.898 97.5648Z" fill="#6BAC7A"/>
<path d="M173.77 130.502C173.77 130.502 176.618 126.085 183.239 123.612C183.239 123.612 185.371 124.028 185.408 124.556C185.446 125.085 175.165 131.03 174.675 132.163C174.203 133.314 173.77 130.502 173.77 130.502Z" fill="#6BAC7A"/>
<path d="M157.62 123.31C157.62 123.31 162.374 121.064 169.297 122.461C169.297 122.461 170.9 123.952 170.636 124.424C170.372 124.896 158.526 124.499 157.507 125.217C156.489 125.915 157.62 123.31 157.62 123.31Z" fill="#6BAC7A"/>
<path d="M196.253 108.229C196.253 108.229 201.007 105.983 207.93 107.38C207.93 107.38 209.533 108.871 209.269 109.343C209.005 109.815 197.159 109.418 196.14 110.136C195.121 110.834 196.253 108.229 196.253 108.229Z" fill="#6BAC7A"/>
<path d="M159.605 94.7336C159.605 94.7336 164.358 92.4875 171.281 93.8842C171.281 93.8842 172.885 95.3753 172.621 95.8472C172.375 96.3191 160.51 95.9227 159.492 96.64C158.473 97.3383 159.605 94.7336 159.605 94.7336Z" fill="#6BAC7A"/>
<path d="M194.521 126.444C194.521 126.444 198.727 123.291 205.782 123.254C205.782 123.254 207.65 124.386 207.499 124.896C207.348 125.405 195.653 127.425 194.804 128.331C193.936 129.218 194.521 126.444 194.521 126.444Z" fill="#6BAC7A"/>
<path d="M169.017 116.572C169.017 116.572 163.34 113.722 163 119.233L165.075 118.308L166.754 121.479L168.81 120.479L166.961 117.478L169.017 116.572Z" fill="#DBBD70"/>
<path d="M188.428 118.856C188.428 118.856 182.75 116.006 182.41 121.517L184.485 120.592L186.164 123.763L188.22 122.763L186.372 119.762L188.428 118.856Z" fill="#DBBD70"/>
<path d="M208.42 112.608C208.42 112.608 202.742 109.758 202.402 115.27L204.477 114.345L206.156 117.516L208.212 116.515L206.364 113.514L208.42 112.608Z" fill="#DBBD70"/>
<path d="M214.291 101.189C214.291 101.189 208.613 98.3387 208.273 103.85L210.348 102.925L212.027 106.096L214.083 105.096L212.235 102.095L214.291 101.189Z" fill="#DBBD70"/>
<path d="M186.502 96.0171C186.502 96.0171 180.824 93.167 180.484 98.6785L182.559 97.7536L184.238 100.925L186.294 99.9242L184.446 96.9231L186.502 96.0171Z" fill="#DBBD70"/>
<path d="M149.324 106.115C149.324 106.115 150.343 105.775 151.512 106.285C151.512 106.285 150.664 107.248 149.324 106.115Z" fill="#39A84D"/>
<path d="M147.699 112.778C147.699 112.778 148.718 112.438 149.887 112.948C149.906 112.948 149.039 113.93 147.699 112.778Z" fill="#39A84D"/>
<path d="M217.062 102.888C217.062 102.888 218.081 102.548 219.251 103.057C219.27 103.057 218.402 104.039 217.062 102.888Z" fill="#39A84D"/>
<path d="M182.41 103.567C182.41 103.567 183.429 103.227 184.598 103.737C184.598 103.737 183.749 104.7 182.41 103.567Z" fill="#39A84D"/>
<path d="M193.367 135.145C193.367 135.145 194.386 134.805 195.555 135.315C195.574 135.315 194.706 136.296 193.367 135.145Z" fill="#39A84D"/>
<path d="M157.961 130.086C157.961 130.086 158.98 129.747 160.149 130.256C160.168 130.256 159.3 131.219 157.961 130.086Z" fill="#39A84D"/>
<path d="M153.34 104.284C153.34 104.284 154.358 103.945 155.528 104.454C155.528 104.454 154.679 105.417 153.34 104.284Z" fill="#39A84D"/>
<path d="M178.504 103.227C178.504 103.227 179.523 102.888 180.692 103.397C180.692 103.397 179.843 104.379 178.504 103.227Z" fill="#39A84D"/>
<path d="M217.723 108.361C217.723 108.361 218.741 108.022 219.911 108.531C219.911 108.531 219.062 109.513 217.723 108.361Z" fill="#39A84D"/>
<path d="M190.973 89.5429C190.973 89.5429 191.991 89.2032 193.161 89.7128C193.161 89.7128 192.312 90.6943 190.973 89.5429Z" fill="#39A84D"/>
<path d="M159.207 109.003C159.207 109.003 160.131 109.569 160.509 110.777C160.509 110.777 159.207 110.758 159.207 109.003Z" fill="#39A84D"/>
<path d="M168.562 106.323C168.562 106.323 169.487 106.889 169.864 108.097C169.864 108.116 168.562 108.097 168.562 106.323Z" fill="#39A84D"/>
<path d="M167.902 112.91C167.902 112.91 168.827 113.476 169.204 114.684C169.204 114.703 167.921 114.684 167.902 112.91Z" fill="#39A84D"/>
<path d="M175.562 122.348C175.562 122.348 176.487 122.914 176.864 124.122C176.845 124.141 175.562 124.122 175.562 122.348Z" fill="#39A84D"/>
<path d="M197.988 114.949C197.988 114.949 198.913 115.515 199.29 116.723C199.29 116.742 197.988 116.723 197.988 114.949Z" fill="#39A84D"/>
<path d="M188.938 100.037C188.938 100.037 189.862 100.604 190.239 101.812C190.239 101.812 188.938 101.793 188.938 100.037Z" fill="#39A84D"/>
<path d="M218.176 100.037C218.176 100.037 219.1 100.604 219.477 101.812C219.458 101.812 218.176 101.793 218.176 100.037Z" fill="#39A84D"/>
<path d="M210.402 125.764C210.402 125.764 211.327 126.33 211.704 127.538C211.704 127.538 210.402 127.519 210.402 125.764Z" fill="#39A84D"/>
<path d="M216.457 123.48C216.457 123.48 217.381 124.046 217.759 125.254C217.759 125.254 216.476 125.236 216.457 123.48Z" fill="#39A84D"/>
</svg>