<svg width="428" height="428" viewBox="0 0 428 428" fill="none" xmlns="http://www.w3.org/2000/svg">
<path d="M250.387 254.813C250.387 254.813 254.781 312.545 267.946 328.155V331.079C267.946 331.079 252.823 324.735 250.387 254.813Z" fill="#F8971D"/>
<path d="M207.005 410.011C292.075 410.011 361.037 390.853 361.037 367.22C361.037 343.588 292.075 324.43 207.005 324.43C121.935 324.43 52.9727 343.588 52.9727 367.22C52.9727 390.853 121.935 410.011 207.005 410.011Z" fill="#F5F6F6"/>
<path d="M207.006 389.977C253.321 389.977 290.867 380.802 290.867 369.484C290.867 358.167 253.321 348.992 207.006 348.992C160.69 348.992 123.145 358.167 123.145 369.484C123.145 380.802 160.69 389.977 207.006 389.977Z" fill="#E0E0E0"/>
<path d="M331.038 260.507C335.958 266.678 307.623 316.443 294.611 326.532C281.608 336.611 267.947 328.156 267.947 328.156L268.157 332.015L269.896 364.583C267.612 365.176 265.147 365.701 262.511 366.169C221.65 373.42 142.422 366.532 142.422 366.532V338.884C117.726 338.884 118.987 335.311 112.816 321.65C112.347 320.608 111.975 319.204 111.707 317.484C111.698 317.465 111.698 317.456 111.698 317.446C108.345 296.562 118.414 229.84 123.219 213.026C128.426 194.807 149.883 180.018 149.883 180.018C149.883 180.018 222.978 168.076 237.862 172.375C252.756 176.665 266.322 199.689 272.494 208.793C278.675 217.907 284.856 274.751 284.856 274.751C284.856 274.751 289.681 264.223 296.063 255.157C296.063 255.157 296.072 255.147 296.091 255.119C296.416 254.775 299.101 252.023 302.177 251.641C304.527 251.345 305.807 247.256 306.333 244.963C310.88 244.208 321.084 247.16 327.532 248.641C329.109 249.004 330.456 249.281 331.449 249.386C337.306 250.036 328.153 256.886 331.038 260.507Z" fill="#FCB143"/>
<path d="M179.586 286.607V280.521L189.369 287.878L179.586 289.96V286.607Z" fill="#AF1F25"/>
<path d="M212.286 205.421C212.286 205.421 210.213 250.915 208.503 267.013C206.793 283.111 211.503 301.52 211.503 301.52L216.499 315.736L218.372 322.385L213.241 323.36C213.241 323.36 213.757 363.666 211.856 369.484H214.273C214.273 369.484 214.952 343.021 214.932 333.028C214.913 323.035 214.913 323.035 214.913 323.035L217.388 321.65L215.343 315.277L215.706 314.303C215.706 314.303 215.267 308.848 213.948 302.504C212.63 296.161 209.21 287.381 211.044 267.137C212.869 246.893 214.025 213.207 213.815 207.914L212.286 205.421Z" fill="#F8971D"/>
<path d="M217.913 280.789L216.003 275.429C215.735 274.684 215.133 274.111 214.388 273.882L205.236 271.073C204.892 270.968 204.529 270.939 204.175 270.987L185.431 273.519C184.801 273.605 184.218 273.929 183.817 274.436L180.148 279.022C179.231 280.168 179.499 281.859 180.721 282.661L192.033 290.104C193.666 290.304 195.205 290.868 196.771 291.346C196.896 291.393 196.972 291.47 197.029 291.556C197.173 291.613 197.326 291.661 197.469 291.718C197.641 291.642 197.803 291.575 197.975 291.508C197.622 291.355 197.66 290.753 198.061 290.61C199.647 290.037 201.615 289.741 203.277 290.123C203.526 290.18 203.612 290.381 203.602 290.581C203.994 290.572 204.395 290.581 204.777 290.591C205.169 290.6 205.446 291.126 205.112 291.403C205.093 291.422 205.064 291.432 205.045 291.451C205.58 292.043 205.981 292.75 206.315 293.466C206.631 294.135 206.908 294.842 207.137 295.549L217.474 283.225C218.038 282.556 218.21 281.63 217.913 280.789Z" fill="#EE2C36"/>
<path d="M245.324 176.034C245.324 176.034 223.026 208.354 218.393 209.443C213.75 210.541 212.661 205.421 212.661 205.421C212.431 206.166 212.173 206.816 211.877 207.379C211.677 207.771 211.457 208.115 211.199 208.421C208.619 211.64 203.661 210.035 192.684 203.596C179.175 195.667 148.27 181.202 148.27 181.202L228.758 174.563L245.324 176.034Z" fill="#F7942C"/>
<path d="M215.403 209.214C215.403 209.214 241.561 177.735 244.618 174.563C247.666 171.391 240.348 176.521 240.348 176.521L214.305 208.421C214.295 208.421 214.763 208.975 215.403 209.214Z" fill="#51629E"/>
<path d="M211.877 207.379C211.676 207.771 211.457 208.115 211.199 208.421C211.199 208.411 211.189 208.411 211.189 208.411C205.094 204.322 160.269 182.817 160.269 182.817C160.269 182.817 155.941 179.989 163.87 182.817C171.15 185.406 206.183 204.294 211.877 207.379Z" fill="#51629E"/>
<path d="M179.49 148.587C179.49 148.587 158.262 151.147 155.463 160.538C155.463 160.538 137.292 164.809 143.263 176.025C149.244 187.241 161.195 180.047 176.318 184.441C191.442 188.836 209.861 194.683 212.66 205.421C212.66 205.421 233.668 182.617 241.76 178.222C249.852 173.827 260.218 164.197 252.174 156.879C244.12 149.561 233.153 148.587 233.153 148.587C233.153 148.587 226.198 146.389 220.102 145.902C214.007 145.415 179.49 148.587 179.49 148.587Z" fill="#51629E"/>
<path d="M225.338 167.006C222.739 167.331 205.505 180.018 205.505 180.018C203.384 177.735 187.449 171.066 181.602 167.98C175.745 164.895 179.853 161.474 179.853 161.474L179.041 132.785L178.994 131.228L191.48 131.61L221.832 132.527C221.832 132.527 221.717 136.692 221.564 141.718C221.402 147.478 221.201 154.376 221.115 157.414C220.953 163.098 225.338 167.006 225.338 167.006Z" fill="#DFA289"/>
<path d="M221.832 132.527C221.832 132.527 221.526 143.437 221.373 148.462C221.268 151.548 211.896 152.045 210.004 152.083C201.798 152.255 193.61 149.045 187.725 143.313C184.487 140.16 181.496 136.587 179.051 132.785L191.49 131.61L221.832 132.527Z" fill="#C98C79"/>
<path d="M255.833 82.3517C254.897 91.0359 248.601 97.475 241.761 96.7394C241.569 96.7203 241.388 96.6821 241.206 96.6438C240.528 106.064 238.102 113.659 234.586 120.117C232.541 123.891 230.115 127.282 227.459 130.416C220.131 139.043 209.02 146.418 192.693 140.342C192.693 140.342 192.684 140.342 192.684 140.332C188.71 138.861 184.42 136.587 179.806 133.339C173.624 128.992 168.494 122.754 164.291 115.923C163.679 116.429 163.001 116.878 162.265 117.241C156.084 120.26 148.05 116.534 144.314 108.901C140.579 101.277 142.556 92.6409 148.737 89.6124C149.826 89.0774 150.982 88.7621 152.158 88.6379C149.206 79.4283 147.935 72.693 147.935 72.693L145.336 61.9548L178.669 43.4209L233.955 47.4812C233.955 47.4812 236.64 54.6559 238.847 66.6743C240.777 65.5852 242.926 65.0693 245.133 65.3081C251.973 66.0438 256.76 73.6675 255.833 82.3517Z" fill="#F2C5AD"/>
<path d="M247.359 65.8145C245.85 65.1458 244.245 67.6106 244.245 67.6106C240.586 70.534 241.808 88.5807 241.436 88.5807C241.073 88.5807 239.124 73.9446 234.853 70.534C230.583 67.1234 219.979 70.1709 213.148 69.5595C206.317 68.9481 196.314 60.0442 196.314 60.0442C196.763 63.6172 200.021 67.7443 203.365 71.1454C207.215 75.0433 211.189 77.9762 211.189 77.9762C211.189 77.9762 209.909 77.9093 207.607 77.8138C204.492 77.68 199.505 77.4985 193.267 77.3648C182.586 77.1164 166.574 71.2123 166.077 71.0308C167.186 73.7153 177.408 78.8265 177.408 78.8265C164.358 79.9251 162.046 78.7023 162.046 78.7023C158.138 84.807 162.046 101.268 162.046 101.268L158.998 103.093C158.998 103.093 157.164 97.6088 155.826 95.2873C154.479 92.9753 151.795 92.4881 151.795 92.4881C151.795 92.4881 139.729 93.8256 135.573 73.2185C134.99 70.3142 134.828 67.6392 134.971 65.184C134.971 65.1744 134.971 65.1744 134.971 65.1744C135.878 50.1944 148.384 43.4209 148.384 43.4209C159.6 22.0305 186.923 14.5501 217.046 20.7694C241.102 25.7468 246.069 51.5033 247.092 61.6778C247.35 64.2382 247.359 65.8145 247.359 65.8145Z" fill="#232323"/>
<path d="M192.683 140.332C188.709 138.861 184.42 136.587 179.805 133.339C173.624 128.992 168.494 122.754 164.29 115.923C164.29 115.923 157.708 101.325 156.944 96.0802C156.189 90.8449 160.488 78.3583 162.045 78.7023C162.045 78.7023 161.185 122.458 192.683 140.332Z" fill="#EEB599"/>
<path d="M193.267 77.3649C182.586 77.1165 166.574 71.2124 166.077 71.0309C167.186 73.7154 177.408 78.8266 177.408 78.8266C164.358 79.9252 162.046 78.7024 162.046 78.7024C158.138 84.8071 162.046 101.268 162.046 101.268L158.998 103.093C158.998 103.093 157.164 97.6089 155.826 95.2874C154.479 92.9754 151.795 92.4882 151.795 92.4882C151.795 92.4882 139.729 93.8257 135.573 73.2186C134.99 70.3143 134.828 67.6393 134.971 65.1841C135.124 65.7477 140.885 86.6701 150.534 87.4821C160.326 88.3133 157.202 75.9414 160.135 74.8045C163.058 73.6677 157.689 68.6234 161.922 66.6744C166.144 64.716 178.994 73.9925 211.189 77.9763C211.189 77.9763 204.12 77.6037 193.267 77.3649Z" fill="#121212"/>
<path d="M241.762 96.7393C241.571 96.7202 241.389 96.682 241.208 96.6438C240.53 106.064 238.103 113.659 234.587 120.117C241.848 98.4016 233.68 69.8269 233.68 69.8269H237.864L241.084 87.3195L241.762 96.7393Z" fill="#F2CAB9"/>
<path d="M247.357 65.8145C245.848 65.1458 244.243 67.6106 244.243 67.6106C240.584 70.534 241.807 88.5807 241.434 88.5807C241.071 88.5807 239.122 73.9446 234.852 70.534C230.581 67.1234 219.977 70.171 213.146 69.5595C206.315 68.9481 196.312 60.0442 196.312 60.0442C196.312 60.0442 207.815 64.5057 214.952 65.184C222.088 65.8623 231.193 64.2287 236.562 66.1871C241.568 68.0119 240.479 61.5919 247.09 61.6778C247.348 64.2382 247.357 65.8145 247.357 65.8145Z" fill="#121212"/>
<path d="M209.373 75.1198C208.714 75.244 208.141 74.623 208.36 73.9925C208.781 72.7888 209.621 71.2315 211.188 70.9831C213.796 70.5723 226.636 69.6838 227.697 69.8463C228.757 70.0087 230.133 73.1805 229.646 73.7537C229.187 74.2887 218.239 73.4097 209.373 75.1198Z" fill="#121212"/>
<path d="M190.084 79.5908C190.046 79.629 190.008 79.6672 189.96 79.6958C189.865 79.7532 189.75 79.7723 189.635 79.7818C181.84 80.5366 174.054 81.5206 166.344 82.925C166.239 82.9441 166.114 82.9632 166.029 82.8963C165.943 82.8294 165.933 82.6957 165.923 82.5906C165.895 81.597 165.818 80.5939 166 79.6003C166.086 79.0271 166.468 77.317 167.309 77.317C167.748 77.1164 168.245 77.0591 168.723 77.0017C171.98 76.6387 175.248 76.3999 178.515 76.2375C180.177 76.1515 181.84 76.0941 183.502 76.0368C185.136 75.9891 186.941 75.3012 188.374 76.3999C188.842 76.7533 190.715 78.8456 190.084 79.5908Z" fill="#121212"/>
<path d="M206.641 85.4565C206.641 85.4565 212.335 95.698 215.908 98.4685C219.481 101.239 213.147 108.146 213.147 108.146C213.147 108.146 215.908 103.264 214.608 100.752C213.309 98.2201 207.529 89.3544 206.641 85.4565Z" fill="#DFA289"/>
<path d="M199.208 258.969L221.573 276.07C222.605 276.863 222.787 278.343 221.975 279.366L217.59 284.83L212.708 275.238L205.552 278.21L202.256 275.888L197.422 274.847L187.505 275.277L181.324 277.512L196.008 259.36C196.782 258.376 198.205 258.204 199.208 258.969Z" fill="#EE2C36"/>
<path d="M183.209 97.6089C185.061 97.6089 186.562 95.0682 186.562 91.9341C186.562 88.8 185.061 86.2593 183.209 86.2593C181.357 86.2593 179.855 88.8 179.855 91.9341C179.855 95.0682 181.357 97.6089 183.209 97.6089Z" fill="#121212"/>
<path d="M217.006 92.9944C218.858 92.9944 220.359 90.4537 220.359 87.3196C220.359 84.1855 218.858 81.6448 217.006 81.6448C215.154 81.6448 213.652 84.1855 213.652 87.3196C213.652 90.4537 215.154 92.9944 217.006 92.9944Z" fill="#121212"/>
<path d="M248.03 73.8872C248.03 73.8872 243.215 78.8837 245.594 89.0105C245.594 89.0105 244.887 81.3868 251.593 78.5589C251.593 78.5589 247.39 79.3136 245.966 82.2752C245.957 82.2848 246.234 76.8775 248.03 73.8872Z" fill="#DFA289"/>
<path d="M148.067 99.1375C148.067 99.1375 154.602 101.488 156.952 111.614C156.952 111.614 154.219 104.468 146.949 104.898C146.949 104.898 151.057 103.714 153.646 105.739C153.637 105.749 150.99 101.029 148.067 99.1375Z" fill="#DFA289"/>
<path d="M262.512 366.169C262.541 363.189 262.541 359.491 262.417 356.406C262.178 350.072 258.27 334.088 255.586 322.624C252.901 311.169 250.656 261.395 250.656 261.395L253.408 280.474L255.462 299.571L259.732 312.239L262.78 322.624L267.948 328.156L269.897 364.583C267.614 365.176 265.149 365.701 262.512 366.169Z" fill="#F8971D"/>
<path d="M217.401 128.18C217.306 128.648 217.172 129.05 217.009 129.355C215.414 132.365 201.848 134.161 197.291 132.613C196.546 132.365 195.886 132.002 195.304 131.553C192.294 129.26 191.253 124.789 191.138 122.2C191.119 121.655 191.148 121.177 191.262 120.767C191.262 120.738 191.272 120.709 191.272 120.69V120.662H191.282C191.817 118.827 194.09 118.34 201.198 118.875C209.978 119.525 217.009 115.216 217.009 115.216C217.009 115.216 217.21 116.649 217.401 118.627C217.678 121.588 217.927 125.763 217.401 128.18Z" fill="#591E3C"/>
<path d="M217.399 118.627C217.093 120.814 214.686 121.388 209.078 122.859C203.47 124.321 197.05 123.021 193.878 122.859C190.916 122.706 191.222 120.92 191.27 120.69C191.279 120.671 191.279 120.662 191.279 120.662C191.814 118.827 194.088 118.34 201.196 118.875C209.976 119.525 217.007 115.216 217.007 115.216C217.007 115.216 217.208 116.649 217.399 118.627Z" fill="white"/>
<path d="M217.398 128.18C217.303 128.648 217.169 129.05 217.006 129.355C215.411 132.365 201.845 134.161 197.288 132.613C196.543 132.365 195.884 132.002 195.301 131.553C195.301 131.553 206.612 122.687 217.398 128.18Z" fill="#B0375C"/>
<path d="M155.34 224.566C155.34 224.566 150.706 283.349 148.022 296.275C148.022 296.275 138.993 297.498 134.121 294.938C134.121 294.938 138.63 302.132 155.34 297.622C172.049 293.113 182.777 288.594 189.857 289.941C196.926 291.279 197.05 292.263 197.05 292.263L203.394 290.314C203.394 290.314 214.008 307.997 216.196 320.923L206.442 324.707C206.442 324.707 201.445 333.735 193.153 335.321C184.86 336.907 142.433 338.894 142.433 338.894C142.433 338.894 165.954 342.027 197.786 336.047C197.786 336.047 204.98 331.901 208.028 326.293L218.393 322.385C218.393 322.385 212.413 298.606 204.369 288.116L197.299 290.553C197.299 290.553 189.131 283.598 169.861 291.527L151.203 296.036C151.193 296.036 157.776 237.253 155.34 224.566Z" fill="#F8971D"/>
<path d="M284.859 274.751C284.859 274.751 274.617 285.709 273.309 289.292C273.309 289.292 279.595 277.369 284.505 271.656L284.859 274.751Z" fill="#F8971D"/>
<path d="M375.145 131.992L375.164 132.011L371.62 120.365L371.993 124.636C365.649 111.786 355.465 100.714 341.851 93.2045C315.722 78.8073 283.976 81.3676 259.576 97.1884L243.096 93.1759L245.752 109.035C245.761 109.407 245.924 109.78 246.22 110.057L265.795 128.295C266.397 128.849 267.314 128.839 267.916 128.285C283.718 113.812 307.047 109.847 325.591 120.06C348.481 132.68 355.417 162.114 341.087 185.807C326.766 209.5 296.596 218.48 273.705 205.86C268.164 202.803 263.56 198.771 259.967 194.062C259.452 193.383 258.468 193.24 257.78 193.756C257.675 193.842 257.57 193.937 257.493 194.042L244.242 211.602L218.085 244.858L209.84 240.645L212.563 253.475C212.649 253.876 212.868 254.23 213.193 254.478L238.338 273.786C239.007 274.302 239.991 274.178 240.516 273.509L270.868 234.75C271.269 234.244 271.957 234.043 272.578 234.253C307.411 245.832 347.956 231.292 368.085 197.998C380.868 176.875 382.674 152.714 375.145 131.992Z" fill="#AF1F25"/>
<path d="M337.744 77.6227C306.943 60.0633 268.213 67.2189 243.422 92.6887C242.839 93.281 242.867 94.246 243.46 94.8192L262.758 113.42C263.341 113.984 264.258 113.974 264.85 113.41C280.432 98.6406 303.428 94.609 321.713 105.022C344.279 117.891 351.119 147.918 336.989 172.079C322.869 196.24 293.119 205.402 270.554 192.533C265.099 189.419 260.551 185.301 257.007 180.496C256.491 179.798 255.526 179.655 254.848 180.19C254.743 180.276 254.647 180.371 254.561 180.486L241.501 198.399L210.137 239.642C209.64 240.291 209.755 241.228 210.395 241.734L235.683 261.816C236.342 262.341 237.307 262.217 237.823 261.548L267.754 222.006C268.146 221.49 268.824 221.289 269.445 221.5C303.791 233.308 343.763 218.481 363.605 184.527C385.923 146.361 374.344 98.4973 337.744 77.6227Z" fill="#EE2C36"/>
<path d="M170.188 218.691V242.651C170.188 242.651 170.455 248.937 176.684 248.937C182.913 248.937 189.457 248.937 189.457 248.937C189.457 248.937 188.769 240.95 181.795 240.95H177.859V226.42C177.859 226.41 178.117 218.691 170.188 218.691Z" fill="white"/>
<path d="M190.105 249.511H176.682C169.966 249.511 169.603 242.728 169.594 242.661V218.089H170.186C172.727 218.089 174.743 218.844 176.186 220.334C178.545 222.77 178.45 226.276 178.44 226.42V240.339H181.794C189.226 240.339 190.038 248.775 190.048 248.861L190.105 249.511ZM170.778 219.293V242.642C170.788 242.852 171.103 248.335 176.682 248.335H188.777C188.452 246.52 187.086 241.533 181.794 241.533H177.265V226.41C177.265 226.362 177.342 223.229 175.335 221.156C174.237 220.019 172.699 219.398 170.778 219.293Z" fill="#F8971D"/>
<path d="M155.453 160.538C155.453 160.538 152.042 170.015 166.554 171.439C181.066 172.862 205.829 183.342 205.829 183.342C205.829 183.342 174.971 173.34 163.382 172.614C151.794 171.878 152.72 164.665 155.453 160.538Z" fill="#394976"/>
<path d="M254.829 164.732C254.829 164.732 249.612 172.967 238.75 174.553C227.888 176.139 214.293 180.658 214.293 180.658C214.293 180.658 230.333 177.486 235.339 176.999C240.346 176.512 248.609 173.779 250.272 171.936C251.934 170.101 254.714 167.999 254.829 164.732Z" fill="#394976"/>
<path d="M202.735 186.352C202.735 186.352 201.024 187.088 201.187 188.225C201.349 189.361 204.273 201.399 199.477 214.487C194.681 227.576 194.031 229.037 194.031 229.037C194.031 229.037 195.168 230.662 196.305 228.464C197.451 226.276 207.693 208.555 202.735 186.352Z" fill="#394976"/>
<path d="M219.482 186.352C219.482 186.352 223.141 211.029 223.017 216.513C222.893 221.996 223.017 225.054 223.017 225.054L224.679 222.866C224.679 222.866 224.775 214.382 223.953 207.981C223.132 201.571 221.307 187.346 221.307 186.352C221.307 185.358 219.32 185.244 219.482 186.352Z" fill="#394976"/>
<path d="M192.13 230.384C192.13 230.384 194.193 227.203 194.766 227.184C195.34 227.165 196.477 227.595 196.534 228.053C196.601 228.512 195.942 231.483 195.177 231.645C194.403 231.808 192.082 231.235 192.13 230.384Z" fill="#1C2844"/>
<path d="M294.715 257.134C294.715 257.134 297.466 252.711 301.689 251.431C305.912 250.151 306.361 245.02 306.934 244.82C307.507 244.619 324.312 248.011 324.312 248.011L318.026 259.58L294.715 257.134Z" fill="#FCB143"/>
<path d="M196.926 295.97C196.773 295.53 196.812 295.129 197.003 295.062L202.267 293.266C202.458 293.199 202.735 293.505 202.878 293.935C203.031 294.374 202.993 294.775 202.802 294.842L197.538 296.638C197.347 296.705 197.07 296.409 196.926 295.97Z" fill="#F8971D"/>
<path d="M198.704 301.167C198.551 300.727 198.589 300.326 198.78 300.259L204.044 298.463C204.235 298.396 204.512 298.702 204.656 299.132C204.808 299.571 204.77 299.972 204.579 300.039L199.315 301.835C199.124 301.902 198.847 301.606 198.704 301.167Z" fill="#F8971D"/>
<path d="M200.481 306.364C200.328 305.924 200.366 305.523 200.557 305.456L205.822 303.66C206.013 303.593 206.29 303.899 206.433 304.329C206.586 304.768 206.548 305.17 206.357 305.236L201.092 307.033C200.901 307.099 200.624 306.803 200.481 306.364Z" fill="#F8971D"/>
<path d="M202.258 311.561C202.106 311.122 202.144 310.72 202.335 310.653L207.599 308.857C207.79 308.79 208.067 309.096 208.21 309.526C208.363 309.966 208.325 310.367 208.134 310.434L202.87 312.23C202.679 312.297 202.402 311.991 202.258 311.561Z" fill="#F8971D"/>
<path d="M204.032 316.758C203.879 316.319 203.917 315.917 204.108 315.851L209.372 314.055C209.563 313.988 209.84 314.293 209.984 314.723C210.137 315.163 210.098 315.564 209.907 315.631L204.643 317.427C204.452 317.494 204.175 317.188 204.032 316.758Z" fill="#F8971D"/>
<path d="M205.809 321.946C205.656 321.506 205.695 321.105 205.886 321.038L211.15 319.242C211.341 319.175 211.618 319.481 211.761 319.911C211.914 320.35 211.876 320.752 211.685 320.818L206.421 322.614C206.23 322.681 205.952 322.385 205.809 321.946Z" fill="#F8971D"/>
<path d="M330.379 249.386C330.379 249.386 339.34 237.588 340.544 234.645C341.748 231.703 339.799 225.273 339.799 225.273C339.799 225.273 331.831 245.899 330.379 249.386Z" fill="#DFA289"/>
<path d="M309.639 245.231C309.639 245.231 307.423 240.511 310.231 233.967C313.04 227.423 317.358 226.219 319.403 221.949C321.447 217.678 318.772 212.997 320.11 211.134C321.447 209.261 322.498 211.401 322.976 214.076C323.454 216.751 326.453 222.627 324.285 225.025C322.116 227.432 327.858 224.289 326.922 219.751C325.985 215.213 324.122 207.8 327.027 205.192C329.931 202.584 329.597 211.134 329.998 213.408C330.399 215.681 331.068 220.42 331.068 222.159C331.068 223.898 329.53 227.432 329.53 227.432C329.53 227.432 332.472 225.225 332.472 223.429C332.472 221.633 331.402 210.475 332.071 208.335C332.74 206.195 334.545 205.259 334.88 207.532C335.214 209.806 335.548 219.35 335.615 221.49C335.682 223.63 335.013 226.63 335.013 226.63C335.013 226.63 338.156 218.146 337.822 215.414C337.488 212.682 336.8 207.867 337.851 206.797C338.892 205.727 341.634 206.061 341.634 208.87C341.634 211.679 341.835 219.952 341.233 221.423C340.631 222.894 338.424 229.238 338.424 229.238C338.424 229.238 335.214 238.123 333.485 242.126C331.746 246.129 330.399 249.386 330.399 249.386C330.399 249.386 312.276 245.536 309.639 245.231Z" fill="#F2C5AD"/>
<path d="M306.81 251.469C306.438 251.383 306.161 251.182 306.199 251.02L307.231 246.501C307.269 246.339 307.603 246.272 307.976 246.358C308.348 246.444 308.625 246.645 308.587 246.807L307.555 251.326C307.517 251.488 307.183 251.546 306.81 251.469Z" fill="#F8971D"/>
<path d="M311.263 252.482C310.891 252.396 310.614 252.195 310.652 252.033L311.684 247.514C311.722 247.352 312.056 247.285 312.429 247.371C312.801 247.457 313.079 247.657 313.04 247.82L312.009 252.339C311.97 252.511 311.636 252.568 311.263 252.482Z" fill="#F8971D"/>
<path d="M315.724 253.504C315.352 253.418 315.075 253.217 315.113 253.055L316.145 248.536C316.183 248.374 316.517 248.307 316.89 248.393C317.262 248.479 317.539 248.679 317.501 248.842L316.469 253.361C316.431 253.533 316.097 253.59 315.724 253.504Z" fill="#F8971D"/>
<path d="M320.185 254.526C319.813 254.44 319.536 254.24 319.574 254.077L320.606 249.558C320.644 249.396 320.978 249.329 321.351 249.415C321.723 249.501 322 249.702 321.962 249.864L320.93 254.383C320.892 254.545 320.558 254.612 320.185 254.526Z" fill="#F8971D"/>
<path d="M63.939 361.354C63.939 361.354 58.9807 371.252 66.5471 374.414C74.1135 377.576 80.4476 372.952 89.4757 374.414C98.5038 375.876 105.086 374.194 107.522 368.452C109.959 362.711 116.55 357.59 116.789 355.144C117.028 352.699 113.866 341.97 105.812 341.97C97.7586 341.97 63.939 361.354 63.939 361.354Z" fill="#E0E0E0"/>
<path d="M354.121 361.354C354.121 361.354 359.079 371.252 351.513 374.414C343.956 377.586 337.612 372.952 328.584 374.414C319.556 375.876 312.973 374.194 310.537 368.452C308.101 362.711 301.509 357.59 301.27 355.144C301.031 352.699 304.194 341.97 312.247 341.97C320.291 341.98 354.121 361.354 354.121 361.354Z" fill="#E0E0E0"/>
<path d="M324.638 255.548C324.266 255.462 323.989 255.262 324.027 255.099L325.059 250.581C325.097 250.418 325.431 250.351 325.804 250.437C326.176 250.523 326.454 250.724 326.415 250.886L325.384 255.405C325.345 255.568 325.011 255.634 324.638 255.548Z" fill="#F8971D"/>
<path d="M329.099 256.571C328.727 256.485 328.45 256.284 328.488 256.122L329.52 251.603C329.558 251.44 329.892 251.374 330.265 251.46C330.637 251.546 330.914 251.746 330.876 251.909L329.844 256.427C329.806 256.59 329.472 256.657 329.099 256.571Z" fill="#F8971D"/>
<path d="M218.392 322.385L208.017 326.283C208.017 326.283 199.925 335.731 195.263 336.496C190.61 337.26 153.619 339.629 153.619 339.629L142.422 338.884C117.726 338.884 118.987 335.311 112.815 321.649C112.347 320.608 111.975 319.204 111.707 317.484C112.146 318.44 119.455 333.84 134.11 333.601C149.233 333.362 185.499 331.891 192.129 327.745C198.75 323.598 216.51 315.736 216.51 315.736L218.392 322.385Z" fill="#F8971D"/>
<path d="M331.037 260.507C335.957 266.678 307.622 316.443 294.61 326.531C281.607 336.61 267.946 328.156 267.946 328.156L268.156 332.015C263.838 324.325 258.975 315.115 262.844 319.232C269.933 326.77 282.114 328.108 290.272 321.707C294.581 318.334 297.313 313.863 300.619 309.641C310.077 297.584 325.936 280.063 324.016 263.43C323.71 260.812 325.745 253.962 327.474 248.775C329.05 249.138 330.445 249.281 331.439 249.386C337.305 250.036 328.152 256.886 331.037 260.507Z" fill="#F8971D"/>
<path d="M249.033 280.521C248.88 280.464 248.708 280.445 248.517 280.474C248.335 280.502 248.163 280.56 248.01 280.646C248.765 277.503 250.188 269.497 247.781 269.936C245.096 270.423 245.832 272.382 243.272 280.474C240.711 288.575 234.607 290.18 237.864 287.457C241.122 284.725 241.81 279.815 243.023 274.646C244.093 270.127 244.8 265.341 243.768 260.755C241.409 261.252 240.396 261.118 239.852 263.449C239.45 265.178 239.221 266.955 238.973 268.713C238.476 272.076 238.38 276.079 236.928 279.213C235.342 282.623 232.533 283.961 232.533 283.961C232.533 283.961 232.782 283.359 234.731 280.474C236.68 277.598 238.514 266.401 238.753 265.675C239.001 264.94 236.565 263.717 234.368 265.675C232.17 267.624 230.948 278.601 227.632 280.474C225.607 281.62 223.391 282.652 221.069 282.967C220.582 283.034 220.018 283.044 219.693 282.671C218.604 281.4 222.015 278.544 222.77 277.77C224.317 276.175 226.027 274.56 227.05 272.554C228.874 268.943 225.827 267.624 225.827 267.624C223.763 269.697 221.681 271.961 219.101 273.404C215.595 275.372 210.684 275.993 208.382 279.576C207.264 281.314 206.51 283.368 205.822 285.298C205.64 285.814 204.494 288.097 204.742 288.623C204.742 288.632 209.672 299.084 212.442 304.96C213.522 307.252 214.277 308.848 214.277 308.848C220.085 307.109 225.989 305.705 231.674 303.565C236.364 301.797 240.692 299.17 244.705 296.189C248.488 293.39 249.634 290.706 249.911 286.024C249.959 285.098 250.38 281.085 249.033 280.521ZM246.453 284.209C246.205 285.795 246.023 287.543 245.354 288.718C244.237 290.696 241.714 291.948 240.96 292.301C241.753 291.642 244.686 287.295 246.453 284.209Z" fill="#F2C5AD"/>
<path d="M249.911 286.024C249.633 290.706 248.487 293.39 244.704 296.189C240.691 299.17 236.364 301.797 231.673 303.565C225.988 305.705 220.084 307.109 214.276 308.848C214.276 308.848 213.521 307.252 212.441 304.96C217.543 303.507 235.475 298.368 238.676 296.657C242.411 294.661 247.78 289.359 248.267 287.457C248.602 286.149 248.592 282.843 249.032 280.521C250.379 281.085 249.958 285.098 249.911 286.024Z" fill="#DFA289"/>
<path d="M101.754 98.6406C115.511 98.6406 126.66 107.927 126.66 119.381C126.66 122.611 125.772 125.668 124.186 128.4C124.644 131.075 126.249 136.549 131.953 139.1C131.953 139.1 123.097 140.877 118.339 134.849C113.935 138.126 108.126 140.122 101.754 140.122C87.9967 140.122 76.8477 130.836 76.8477 119.381C76.8572 107.927 88.0062 98.6406 101.754 98.6406Z" fill="#FECB87"/>
<path d="M313.805 345.275C313.805 345.275 305.962 331.948 314.598 329.713C314.598 329.713 317.159 329.522 318.324 330.649C319.49 331.776 321.076 326.082 320.627 323.608C320.178 321.134 323.407 318.898 325.728 317.58C328.05 316.261 326.779 310.376 330.046 308.303C333.314 306.23 335.205 295.052 338.52 297.336C341.836 299.619 338.769 306.918 336.419 310.825C334.069 314.723 333.113 314.867 337.622 317.532C342.132 320.188 344.062 323.723 340.976 326.904C337.89 330.085 337.135 331.881 339.571 333.706C342.008 335.54 342.16 340.68 339.753 345.4C337.345 350.129 336.094 350.262 336.094 350.262L313.805 345.275Z" fill="#FCB143"/>
<path d="M337.337 336.41C336.601 338.54 334.423 339.715 332.484 340.575C330.439 341.483 328.185 342.151 325.939 341.836C326.876 338.12 327.812 334.403 328.719 330.678C328.987 329.56 329.188 328.452 329.331 327.334C329.847 327.248 330.315 327.009 330.793 326.808C331.289 326.598 331.796 326.388 332.293 326.168C333.133 325.805 333.974 325.442 334.776 325.003C336.372 324.152 337.843 323.025 338.76 321.439C339.037 320.952 338.283 320.522 338.006 321.009C337.165 322.471 335.799 323.474 334.327 324.258C333.582 324.659 332.818 325.003 332.044 325.328C331.614 325.509 331.175 325.691 330.745 325.882C330.325 326.054 329.866 326.321 329.417 326.426C329.503 325.585 329.57 324.735 329.618 323.875C329.723 321.602 329.895 319.376 330.678 317.226C331.557 314.819 332.885 312.612 333.601 310.147C333.754 309.612 332.914 309.402 332.761 309.937C332.455 310.978 332.044 311.972 331.605 312.946C331.538 312.879 331.48 312.822 331.423 312.755C331.404 312.726 331.385 312.707 331.366 312.679C331.328 312.631 331.299 312.574 331.261 312.516C331.232 312.468 331.203 312.421 331.175 312.363C331.156 312.325 331.137 312.296 331.127 312.258C331.079 312.144 331.041 312.019 331.003 311.895C330.984 311.838 330.974 311.781 330.965 311.733C330.965 311.714 330.955 311.685 330.955 311.666C330.955 311.656 330.955 311.637 330.945 311.618C330.936 311.504 330.926 311.379 330.926 311.255C330.926 311.188 330.936 311.131 330.936 311.064C330.936 311.055 330.936 311.055 330.936 311.055C330.936 311.055 330.936 311.054 330.936 311.045C330.945 311.016 330.945 310.978 330.955 310.949C330.974 310.825 331.012 310.701 331.051 310.586C331.127 310.367 330.955 310.109 330.735 310.061C330.487 310.013 330.286 310.147 330.21 310.376C329.837 311.504 330.191 312.841 331.07 313.644C331.117 313.691 331.175 313.72 331.242 313.739C330.859 314.57 330.477 315.392 330.133 316.242C329.302 318.296 328.949 320.379 328.815 322.586C328.758 323.474 328.71 324.363 328.653 325.242C327.955 324.984 327.411 324.458 326.981 323.847C326.427 323.054 325.978 322.156 325.634 321.258C325.548 321.038 325.338 320.895 325.099 320.962C324.889 321.019 324.717 321.277 324.803 321.497C325.194 322.5 325.691 323.531 326.322 324.401C326.895 325.194 327.64 325.853 328.586 326.13C328.49 327.257 328.347 328.385 328.089 329.512C327.573 331.814 326.962 334.107 326.388 336.4C326.226 337.031 326.073 337.671 325.911 338.301C325.882 338.282 325.863 338.254 325.825 338.234C324.745 337.709 323.723 337.059 322.796 336.295C322.338 335.913 321.908 335.512 321.497 335.091C321.191 334.776 320.733 334.327 320.819 333.84C320.905 333.295 320.064 333.076 319.978 333.63C319.873 334.251 320.112 334.786 320.494 335.263C320.914 335.789 321.43 336.266 321.936 336.706C322.987 337.613 324.153 338.387 325.395 338.999C325.519 339.056 325.634 339.056 325.739 339.018C325.309 340.757 324.869 342.495 324.44 344.234C324.306 344.779 325.146 344.989 325.28 344.444C325.424 343.852 325.576 343.26 325.729 342.667C328.223 343.03 330.668 342.314 332.933 341.311C335.12 340.336 337.356 338.989 338.178 336.61C338.369 336.094 337.518 335.884 337.337 336.41Z" fill="#F7942C"/>
<path d="M328.097 361.354C328.097 361.354 317.751 344.702 328.088 342.018C328.088 342.018 331.155 341.788 332.549 343.145C333.944 344.502 335.836 337.68 335.31 334.719C334.785 331.757 338.645 329.082 341.415 327.506C344.186 325.92 342.676 318.889 346.584 316.405C350.491 313.921 352.765 300.546 356.729 303.278C360.694 306.01 357.035 314.752 354.217 319.424C351.399 324.095 350.262 324.267 355.659 327.449C361.057 330.63 363.369 334.862 359.672 338.674C355.975 342.486 355.077 344.626 357.981 346.823C360.895 349.011 361.076 355.173 358.191 360.829C355.306 366.484 353.739 368.5 353.739 368.5L328.097 361.354Z" fill="#F26322"/>
<path d="M354.617 351.342C353.738 353.893 351.13 355.307 348.809 356.329C346.363 357.418 343.66 358.211 340.965 357.838C342.083 353.386 343.201 348.935 344.29 344.473C344.615 343.136 344.854 341.808 345.026 340.48C345.637 340.375 346.201 340.097 346.774 339.849C347.376 339.591 347.978 339.343 348.58 339.085C349.583 338.655 350.586 338.215 351.551 337.69C353.461 336.668 355.229 335.321 356.318 333.42C356.652 332.837 355.745 332.33 355.41 332.904C354.407 334.661 352.764 335.856 351.016 336.792C350.127 337.27 349.21 337.68 348.283 338.072C347.768 338.292 347.252 338.512 346.726 338.731C346.229 338.941 345.675 339.257 345.131 339.381C345.236 338.378 345.322 337.365 345.37 336.333C345.494 333.62 345.694 330.945 346.64 328.366C347.691 325.49 349.287 322.844 350.146 319.892C350.337 319.252 349.325 318.994 349.143 319.634C348.78 320.876 348.283 322.06 347.758 323.245C347.682 323.169 347.605 323.092 347.538 323.016C347.519 322.987 347.49 322.958 347.471 322.92C347.424 322.853 347.385 322.796 347.347 322.729C347.309 322.672 347.28 322.614 347.252 322.548C347.233 322.509 347.213 322.462 347.194 322.423C347.137 322.28 347.089 322.137 347.051 321.993C347.032 321.927 347.022 321.86 347.003 321.793C346.994 321.764 346.994 321.736 346.984 321.707C346.984 321.697 346.984 321.669 346.975 321.65C346.955 321.506 346.955 321.363 346.955 321.22C346.955 321.143 346.965 321.067 346.965 320.99C346.965 320.981 346.965 320.981 346.965 320.981C346.965 320.981 346.965 320.981 346.965 320.971C346.975 320.933 346.975 320.895 346.984 320.857C347.013 320.704 347.051 320.56 347.099 320.417C347.185 320.159 346.984 319.844 346.726 319.787C346.43 319.729 346.191 319.882 346.096 320.159C345.647 321.516 346.077 323.111 347.127 324.067C347.185 324.114 347.252 324.153 347.328 324.181C346.869 325.175 346.411 326.159 346 327.172C345.007 329.627 344.577 332.13 344.424 334.767C344.357 335.837 344.3 336.887 344.233 337.948C343.402 337.633 342.742 337.002 342.236 336.276C341.577 335.33 341.042 334.251 340.621 333.181C340.516 332.923 340.268 332.741 339.981 332.827C339.733 332.904 339.523 333.209 339.628 333.467C340.096 334.671 340.688 335.894 341.453 336.945C342.141 337.891 343.029 338.684 344.166 339.018C344.051 340.375 343.879 341.722 343.574 343.069C342.953 345.83 342.217 348.571 341.539 351.313C341.348 352.078 341.156 352.832 340.975 353.597C340.946 353.568 340.918 353.539 340.87 353.511C339.58 352.88 338.357 352.106 337.249 351.189C336.705 350.74 336.179 350.253 335.692 349.747C335.329 349.364 334.775 348.829 334.88 348.247C334.985 347.587 333.982 347.33 333.877 347.989C333.753 348.734 334.039 349.374 334.498 349.947C335.004 350.578 335.615 351.141 336.227 351.676C337.488 352.765 338.883 353.692 340.373 354.418C340.516 354.485 340.66 354.485 340.784 354.447C340.268 356.53 339.743 358.612 339.227 360.695C339.064 361.345 340.077 361.603 340.23 360.953C340.411 360.246 340.583 359.529 340.765 358.822C343.745 359.252 346.678 358.402 349.392 357.198C352.009 356.033 354.694 354.418 355.668 351.571C355.84 350.96 354.837 350.711 354.617 351.342Z" fill="#EE2C36"/>
<path d="M106.53 343.594C106.53 343.594 114.373 330.267 105.737 328.031C105.737 328.031 103.177 327.84 102.011 328.968C100.846 330.095 99.2597 324.401 99.7088 321.927C100.148 319.452 96.9287 317.217 94.6071 315.898C92.2952 314.58 93.5563 308.695 90.2889 306.622C87.0216 304.549 85.13 293.371 81.8149 295.654C78.4998 297.938 81.5665 305.237 83.9167 309.144C86.2669 313.042 87.2222 313.185 82.713 315.851C78.2037 318.506 76.2739 322.041 79.3597 325.223C82.4455 328.404 83.2002 330.2 80.764 332.025C78.3279 333.859 78.175 338.999 80.5825 343.728C82.99 348.457 84.2415 348.591 84.2415 348.591L106.53 343.594Z" fill="#F26322"/>
<path d="M82.9875 334.729C83.7231 336.859 85.9014 338.034 87.8407 338.894C89.8852 339.801 92.1398 340.47 94.3849 340.155C93.4487 336.439 92.5124 332.722 91.6048 328.996C91.3373 327.879 91.1367 326.77 90.9934 325.653C90.4775 325.567 90.0094 325.328 89.5317 325.127C89.0254 324.917 88.5286 324.707 88.0318 324.487C87.1911 324.124 86.3504 323.761 85.5479 323.322C83.9524 322.471 82.4812 321.344 81.564 319.758C81.287 319.271 82.0417 318.841 82.3188 319.328C83.1595 320.79 84.5256 321.793 85.9969 322.576C86.7421 322.978 87.5064 323.322 88.2802 323.646C88.7101 323.828 89.1496 324.009 89.5795 324.201C89.9998 324.372 90.4584 324.64 90.9074 324.745C90.8214 323.904 90.7546 323.054 90.7068 322.194C90.6017 319.921 90.4297 317.695 89.6464 315.545C88.7674 313.137 87.4395 310.931 86.723 308.466C86.5701 307.931 87.4108 307.721 87.5637 308.256C87.8694 309.297 88.2802 310.291 88.7197 311.265C88.7865 311.198 88.8439 311.141 88.9012 311.074C88.9203 311.045 88.9394 311.026 88.9585 310.997C88.9967 310.95 89.0254 310.892 89.0636 310.835C89.0923 310.787 89.1209 310.74 89.1496 310.682C89.1687 310.644 89.1878 310.615 89.1973 310.577C89.2451 310.462 89.2833 310.338 89.3215 310.214C89.3406 310.157 89.3502 310.099 89.3597 310.052C89.3597 310.033 89.3693 310.004 89.3693 309.985C89.3693 309.975 89.3693 309.956 89.3789 309.937C89.3884 309.822 89.398 309.698 89.398 309.574C89.398 309.507 89.3884 309.45 89.3884 309.383C89.3884 309.373 89.3884 309.373 89.3884 309.373C89.3884 309.373 89.3884 309.373 89.3884 309.364C89.3789 309.335 89.3789 309.297 89.3693 309.268C89.3502 309.144 89.312 309.02 89.2738 308.905C89.1973 308.686 89.3693 308.428 89.589 308.38C89.8374 308.332 90.0381 308.466 90.1145 308.695C90.4871 309.822 90.1336 311.16 89.2547 311.962C89.2069 312.01 89.1496 312.039 89.0827 312.058C89.4648 312.889 89.847 313.711 90.1909 314.561C91.0221 316.615 91.3756 318.698 91.5093 320.905C91.5666 321.793 91.6144 322.681 91.6717 323.56C92.3691 323.302 92.9137 322.777 93.3436 322.166C93.8977 321.373 94.3467 320.475 94.6906 319.577C94.7766 319.357 94.9868 319.214 95.2256 319.28C95.4358 319.338 95.6078 319.596 95.5218 319.815C95.1301 320.819 94.6333 321.85 94.0028 322.72C93.4296 323.513 92.6844 324.172 91.7386 324.449C91.8341 325.576 91.9774 326.704 92.2354 327.831C92.7513 330.133 93.3627 332.426 93.9359 334.719C94.0983 335.35 94.2512 335.99 94.4136 336.62C94.4423 336.601 94.4614 336.572 94.4996 336.553C95.5791 336.028 96.6014 335.378 97.528 334.614C97.9866 334.232 98.4165 333.83 98.8273 333.41C99.1331 333.095 99.5916 332.646 99.5056 332.159C99.4197 331.614 100.26 331.394 100.346 331.948C100.451 332.569 100.213 333.104 99.8305 333.582C99.4101 334.108 98.8942 334.585 98.3879 335.025C97.337 335.932 96.1714 336.706 94.9295 337.318C94.8053 337.375 94.6906 337.375 94.5856 337.337C95.0155 339.075 95.4549 340.814 95.8848 342.553C96.0186 343.097 95.1779 343.308 95.0441 342.763C94.9008 342.171 94.748 341.578 94.5951 340.986C92.1016 341.349 89.6559 340.633 87.3917 339.63C85.2039 338.655 82.9684 337.308 82.1468 334.929C81.9653 334.413 82.806 334.203 82.9875 334.729Z" fill="#EE2C36"/>
<path d="M92.2364 359.673C92.2364 359.673 102.583 343.021 92.246 340.336C92.246 340.336 89.1793 340.107 87.7845 341.464C86.3896 342.82 84.498 335.999 85.0235 333.037C85.5489 330.076 81.6893 327.401 78.9187 325.824C76.1482 324.239 77.6577 317.207 73.7502 314.723C69.8428 312.239 67.5691 298.864 63.6044 301.597C59.6396 304.329 63.2986 313.07 66.1169 317.742C68.9352 322.414 70.0721 322.586 64.6744 325.767C59.2766 328.948 56.9646 333.181 60.6619 336.993C64.3591 340.804 65.2571 342.944 62.3528 345.142C59.439 347.33 59.2575 353.492 62.1427 359.147C65.0278 364.803 66.5946 366.819 66.5946 366.819L92.2364 359.673Z" fill="#FCB143"/>
<path d="M65.7147 349.661C66.5936 352.211 69.2018 353.625 71.5233 354.648C73.969 355.737 76.6727 356.53 79.3668 356.157C78.249 351.705 77.1312 347.253 76.0421 342.792C75.7173 341.454 75.4785 340.126 75.3065 338.798C74.6951 338.693 74.1314 338.416 73.5582 338.168C72.9563 337.91 72.3544 337.661 71.7526 337.403C70.7494 336.974 69.7463 336.534 68.7814 336.009C66.8707 334.986 65.1033 333.639 64.0142 331.738C63.6798 331.155 64.5874 330.649 64.9218 331.222C65.9249 332.98 67.5681 334.174 69.3164 335.111C70.2049 335.588 71.122 335.999 72.0487 336.391C72.5646 336.61 73.0805 336.83 73.606 337.05C74.1027 337.26 74.6569 337.575 75.2014 337.7C75.0963 336.696 75.0103 335.684 74.9626 334.652C74.8384 331.939 74.6377 329.264 73.6919 326.684C72.641 323.809 71.0456 321.162 70.1858 318.21C69.9947 317.57 71.0074 317.312 71.1889 317.952C71.5519 319.194 72.0487 320.379 72.5742 321.564C72.6506 321.487 72.727 321.411 72.7939 321.334C72.813 321.306 72.8417 321.277 72.8608 321.239C72.9085 321.172 72.9468 321.115 72.985 321.048C73.0232 320.99 73.0519 320.933 73.0805 320.866C73.0996 320.828 73.1187 320.78 73.1378 320.742C73.1952 320.599 73.2429 320.455 73.2811 320.312C73.3002 320.245 73.3098 320.178 73.3289 320.111C73.3385 320.083 73.3385 320.054 73.348 320.026C73.348 320.016 73.348 319.987 73.3576 319.968C73.3767 319.825 73.3767 319.682 73.3767 319.538C73.3767 319.462 73.3671 319.385 73.3671 319.309C73.3671 319.299 73.3671 319.299 73.3671 319.299C73.3671 319.299 73.3671 319.299 73.3671 319.29C73.3576 319.252 73.3576 319.213 73.348 319.175C73.3194 319.022 73.2811 318.879 73.2334 318.736C73.1474 318.478 73.348 318.163 73.606 318.105C73.9021 318.048 74.141 318.201 74.2365 318.478C74.6855 319.834 74.2556 321.43 73.2047 322.385C73.1474 322.433 73.0805 322.471 73.0041 322.5C73.4627 323.493 73.9212 324.477 74.332 325.49C75.3256 327.945 75.7555 330.448 75.9084 333.085C75.9752 334.155 76.0326 335.206 76.0994 336.267C76.9306 335.951 77.5898 335.321 78.0961 334.595C78.7553 333.649 79.2903 332.569 79.7107 331.499C79.8158 331.241 80.0642 331.06 80.3508 331.146C80.5992 331.222 80.8094 331.528 80.7043 331.786C80.2361 332.99 79.6438 334.213 78.8795 335.263C78.1917 336.209 77.3032 337.002 76.1663 337.337C76.281 338.693 76.4529 340.04 76.7586 341.387C77.3796 344.148 78.1152 346.89 78.7936 349.632C78.9846 350.396 79.1757 351.151 79.3572 351.915C79.3859 351.887 79.4145 351.858 79.4623 351.829C80.752 351.199 81.9749 350.425 83.0831 349.508C83.6277 349.059 84.1531 348.572 84.6403 348.065C85.0034 347.683 85.5575 347.148 85.4524 346.565C85.3473 345.906 86.3504 345.648 86.4555 346.307C86.5797 347.053 86.2931 347.693 85.8345 348.266C85.3282 348.896 84.7168 349.46 84.1053 349.995C82.8443 351.084 81.4494 352.011 79.9591 352.737C79.8158 352.804 79.6725 352.804 79.5483 352.766C80.0642 354.848 80.5896 356.931 81.1055 359.014C81.2679 359.663 80.2552 359.921 80.1024 359.272C79.9209 358.565 79.7489 357.848 79.5674 357.141C76.5867 357.571 73.6537 356.721 70.9405 355.517C68.3228 354.351 65.6383 352.737 64.6638 349.89C64.4919 349.279 65.495 349.03 65.7147 349.661Z" fill="#F7942C"/>
<path d="M114.872 121.015C116.402 121.015 117.643 119.869 117.643 118.455C117.643 117.041 116.402 115.894 114.872 115.894C113.342 115.894 112.102 117.041 112.102 118.455C112.102 119.869 113.342 121.015 114.872 121.015Z" fill="white"/>
<path d="M100.634 121.015C102.164 121.015 103.404 119.869 103.404 118.455C103.404 117.041 102.164 115.894 100.634 115.894C99.1037 115.894 97.8633 117.041 97.8633 118.455C97.8633 119.869 99.1037 121.015 100.634 121.015Z" fill="white"/>
<path d="M87.3955 121.015C88.9257 121.015 90.1661 119.869 90.1661 118.455C90.1661 117.041 88.9257 115.894 87.3955 115.894C85.8654 115.894 84.625 117.041 84.625 118.455C84.625 119.869 85.8654 121.015 87.3955 121.015Z" fill="white"/>
</svg>